{
    "QUESTION_ANSWER_CORRECT_FI": "on oikein! Paina uudelleen uutta kysymystä varten.",
    "QUESTION_ANSWER_CORRECT_EN": "is correct! Tap again for next question.",
    "QUESTION_ANSWER_CORRECT_SV": "(text behövs)",

    "QUESTION_ANSWER_INCORRECT_FI": "on väärin! Yritä uudelleen.",
    "QUESTION_ANSWER_INCORRECT_EN": "is incorrect! Try again.",
    "QUESTION_ANSWER_INCORRECT_SV": "(text behövs)",

    "FINISH_SCREEN_CONGRATULATIONS_FI": "O N N I T T E L U T",
    "FINISH_SCREEN_CONGRATULATIONS_EN": "C O N G R A T U L A T I O N S",
    "FINISH_SCREEN_CONGRATULATIONS_SV": "(text behövs)",

    "FINISH_SCREEN_START_FI": "Sait",
    "FINISH_SCREEN_START_EN": "You got",
    "FINISH_SCREEN_START_SV": "(text behövs)",

    "FINISH_SCREEN_REST_FI": "kysymystä oikein! Hyvin tehty. Voit nyt palata karttaan, tai pelata tietovisaa uudestaan.",
    "FINISH_SCREEN_REST_EN": "questions correct! Well done. You may now return to the map or play the quiz again.",
    "FINISH_SCREEN_REST_SV": "(text behövs)"
}