﻿{
    "TUTORIAL_CARD_LIBRARY_FI": "Korttikirjasto",
    "TUTORIAL_CARD_LIBRARY_EN": "Card library",
    "TUTORIAL_CARD_LIBRARY_SV": "Kort bibliotek",

    "TUTORIAL_MAIN_MENU_FI": "Päävalikko",
    "TUTORIAL_MAIN_MENU_EN": "Main menu",
    "TUTORIAL_MAIN_MENU_SV": "(text behövs)",

    "TUTORIAL_NOTIFICATIONS_FI": "Ilmoitukset",
    "TUTORIAL_NOTIFICATIONS_EN": "Notifications",
    "TUTORIAL_NOTIFICATIONS_SV": "Notifikationer",

    "TUTORIAL_CAMERA_RESET_FI": "Kameran palautus",
    "TUTORIAL_CAMERA_RESET_EN": "Reset camera",
    "TUTORIAL_CAMERA_RESET_SV": "(text behövs)",

    "TUTORIAL_SCENE_MENU_FI": "Pelivalikko",
    "TUTORIAL_SCENE_MENU_EN": "Game menu",
    "TUTORIAL_SCENE_MENU_SV": "Spel menu",

    "INFO_WINDOW_HEADER_FI": "TIETOA",
    "INFO_WINDOW_HEADER_EN": "INFORMATION",
    "INFO_WINDOW_HEADER_SV": "INFORMATION",

    "INFO_GAME_DESIGN_FI": "PELISUUNNITTELU",
    "INFO_GAME_DESIGN_EN": "GAME DESIGN",
    "INFO_GAME_DESIGN_SV": "(text behövs)",

    "INFO_GRAPHICS_FI": "GRAFIIKKA",
    "INFO_GRAPHICS_EN": "GRAPHICS",
    "INFO_GRAPHICS_SV": "GRAFIKER",

    "INFO_PROGRAMMING_FI": "OHJELMOINTI",
    "INFO_PROGRAMMING_EN": "PROGRAMMING",
    "INFO_PROGRAMMING_SV": "PROGRAMMING",

    "INFO_CONTENT_N_SOUND_FI": "SISÄLTÖ & ÄÄNI",
    "INFO_CONTENT_N_SOUND_EN": "CONTENT & SOUND",
    "INFO_CONTENT_N_SOUND_SV": "(text behövs)",

    "INFO_PRODUCER_FI": "TUOTTAJA",
    "INFO_PRODUCER_EN": "PRODUCER",
    "INFO_PRODUCER_SV": "(text behövs)",

    "INFO_DIRECTOR_FI": "OHJAAJA",
    "INFO_DIRECTOR_EN": "DIRECTOR",
    "INFO_DIRECTOR_SV": "(text behövs)",

    "SETTINGS_WINDOW_HEADER_FI": "ASETUKSET",
    "SETTINGS_WINDOW_HEADER_EN": "SETTINGS",
    "SETTINGS_WINDOW_HEADER_SV": "(text behövs)",

    "SETTINGS_VOLUME_FI": "ÄÄNENVOIMAKKUUS",
    "SETTINGS_VOLUME_EN": "VOLUME",
    "SETTINGS_VOLUME_SV": "(text behövs)",

    "SETTINGS_VOLUME_MUSIC_FI": "MUSIIKKI",
    "SETTINGS_VOLUME_MUSIC_EN": "MUSIC",
    "SETTINGS_VOLUME_MUSIC_SV": "(text behövs)",

    "SETTINGS_VOLUME_SFX_FI": "EFEKTIT",
    "SETTINGS_VOLUME_SFX_EN": "SFX",
    "SETTINGS_VOLUME_SFX_SV": "(text behövs)",

    "SETTINGS_LANGUAGE_FI": "KIELI",
    "SETTINGS_LANGUAGE_EN": "LANGUAGE",
    "SETTINGS_LANGUAGE_SV": "SPRÅK",

    "SETTINGS_GAME_FI": "PELI",
    "SETTINGS_GAME_EN": "GAME",
    "SETTINGS_GAME_SV": "(text behövs)",

    "SETTINGS_GRAPHICS_FI": "GRAFIIKAT",
    "SETTINGS_GRAPHICS_EN": "GRAPHICS",
    "SETTINGS_GRAPHICS_SV": "(text behövs)",

    "SETTINGS_GPS_RESET_FI": "GPS NOLLAUS",
    "SETTINGS_GPS_RESET_EN": "GPS RESET",
    "SETTINGS_GPS_RESET_SV": "(text behövs)",

    "SETTINGS_GAME_RESET_FI": "PELIN NOLLAUS",
    "SETTINGS_GAME_RESET_EN": "GAME RESET",
    "SETTINGS_GAME_RESET_SV": "SPEL RESET"
}