{
    "header": "Rasti 1. Planetaarion piha",
    "header_en": "Checkpoint 1. Planetary ",
    "header_sv": "",
    "imagePath": "",
    "body": "Planetaario on vaaleansinisessä hiomorakennuksessa, jonka katolla kohoaa korkea torni.\r\n\r\nNäyttäisi siltä, että olet löytänyt kaukoputken putken.",
    "body_en": "",
    "body_sv": ""
}