[
   {
      "ID":"000001",
      "isIncluded": true,
      "category":"Misc",
      "imagePath":""
   },
   {
      "ID":"000002",
      "isIncluded": true,
      "category":"Misc",
      "imagePath":""
   },
   {
      "ID":"000003",
      "isIncluded": true,
      "category":"Misc",
      "imagePath":""
   },
   {
      "ID":"000004",
      "isIncluded": true,
      "category":"Misc",
      "imagePath":""
   },
   {
      "ID":"000005",
      "isIncluded": true,
      "category":"Misc",
      "imagePath":""
   },
   {
      "ID":"000006",
      "isIncluded": true,
      "category":"Misc",
      "imagePath":""
   },
   {
      "ID":"000007",
      "isIncluded": true,
      "category":"Misc",
      "imagePath":""
   },
   {
      "ID":"000008",
      "isIncluded": true,
      "category":"Misc",
      "imagePath":""
   },
   {
      "ID":"000009",
      "isIncluded": true,
      "category":"Misc",
      "imagePath":""
   },
   {
      "ID":"000010",
      "isIncluded": true,
      "category":"Misc",
      "imagePath":""
   },
   {
      "ID":"000011",
      "isIncluded": true,
      "category":"Misc",
      "imagePath":""
   },
   {
      "ID":"000012",
      "isIncluded": true,
      "category":"Misc",
      "imagePath":""
   },
   {
      "ID":"000013",
      "isIncluded": true,
      "category":"Misc",
      "imagePath":""
   },
   {
      "ID":"000014",
      "isIncluded": true,
      "category":"Misc",
      "imagePath":""
   },
   {
      "ID":"000015",
      "isIncluded": true,
      "category":"Misc",
      "imagePath":""
   },
   {
      "ID":"000016",
      "isIncluded": true,
      "category":"Misc",
      "imagePath":""
   },
   {
      "ID":"000017",
      "isIncluded": true,
      "category":"Misc",
      "imagePath":""
   },
   {
      "ID":"000018",
      "isIncluded": true,
      "category":"Misc",
      "imagePath":""
   },
   {
      "ID":"000019",
      "isIncluded": true,
      "category":"Misc",
      "imagePath":""
   },
   {
      "ID":"000020",
      "isIncluded": true,
      "category":"Misc",
      "imagePath":""
   },
   {
      "ID":"000021",
      "isIncluded": true,
      "category":"Misc",
      "imagePath":""
   },
   {
      "ID":"000022",
      "isIncluded": true,
      "category":"Misc",
      "imagePath":""
   },
   {
      "ID":"000023",
      "isIncluded": true,
      "category":"Misc",
      "imagePath":""
   },
   {
      "ID":"000024",
      "isIncluded": true,
      "category":"Misc",
      "imagePath":""
   },
   {
      "ID":"000025",
      "isIncluded": true,
      "category":"Misc",
      "imagePath":""
   },
   {
      "ID":"000026",
      "isIncluded": true,
      "category":"Misc",
      "imagePath":""
   },
   {
      "ID":"000027",
      "isIncluded": true,
      "category":"Misc",
      "imagePath":""
   },
   {
      "ID":"000028",
      "isIncluded": true,
      "category":"Misc",
      "imagePath":""
   },
   {
      "ID":"000029",
      "isIncluded": true,
      "category":"Misc",
      "imagePath":""
   },
   {
      "ID":"000030",
      "isIncluded": true,
      "category":"Misc",
      "imagePath":""
   },
   {
      "ID":"000031",
      "isIncluded": true,
      "category":"Misc",
      "imagePath":""
   },
   {
      "ID":"000032",
      "isIncluded": true,
      "category":"Misc",
      "imagePath":""
   },
   {
      "ID":"000033",
      "isIncluded": true,
      "category":"Misc",
      "imagePath":""
   },
   {
      "ID":"000034",
      "isIncluded": true,
      "category":"Misc",
      "imagePath":""
   },
   {
      "ID":"000035",
      "isIncluded": true,
      "category":"Misc",
      "imagePath":""
   },
   {
      "ID":"000036",
      "isIncluded": true,
      "category":"Misc",
      "imagePath":""
   },
   {
      "ID":"000037",
      "isIncluded": true,
      "category":"Misc",
      "imagePath":""
   },
   {
      "ID":"000038",
      "isIncluded": true,
      "category":"Misc",
      "imagePath":""
   },
   {
      "ID":"000039",
      "isIncluded": true,
      "category":"Misc",
      "imagePath":""
   },
   {
      "ID":"000040",
      "isIncluded": true,
      "category":"Misc",
      "imagePath":""
   },
   {
      "ID":"000041",
      "isIncluded": true,
      "category":"Misc",
      "imagePath":""
   },
   {
      "ID":"000042",
      "isIncluded": true,
      "category":"Misc",
      "imagePath":""
   },
   {
      "ID":"000043",
      "isIncluded": false,
      "category":"Misc",
      "imagePath":""
   },
   {
      "ID":"000044",
      "isIncluded": false,
      "category":"Misc",
      "imagePath":""
   },
   {
      "ID":"000045",
      "isIncluded": false,
      "category":"Misc",
      "imagePath":""
   },
   {
      "ID":"000046",
      "isIncluded": false,
      "category":"Misc",
      "imagePath":""
   },
   {
      "ID":"000047",
      "isIncluded": false,
      "category":"Misc",
      "imagePath":""
   },
   {
      "ID":"000048",
      "isIncluded": false,
      "category":"Misc",
      "imagePath":""
   },
   {
      "ID":"000049",
      "isIncluded": false,
      "category":"Misc",
      "imagePath":""
   },
   {
      "ID":"000050",
      "isIncluded": false,
      "category":"Misc",
      "imagePath":""
   },
   {
      "ID":"000051",
      "isIncluded": true,
      "category":"Misc",
      "imagePath":""
   }
]