[
   {
      "ID":"000001",
      "header_fi":"Linnunrata",
      "header_en":"Milky Way",
      "header_sv":"Vintergatan",
      "body_fi":"Linnunrata on satojen miljardien tähtien muodostama galaksi, johon myös oma Aurinkokuntamme kuuluu. Tarkemmin sanottuna Linnunrata on sauvaspiraaligalaksi. Aurinkokunta sijaitsee Linnunradan kierteishaaran osassa, jota kutsutaan Orionin haaraksi. Linnunradan lähin suuri naapurigalaksi on Andromeda.\r\n\r\nLisätietoa: https://fi.wikipedia.org/wiki/Linnunrata",
      "body_en":"For further information, visit: https://en.wikipedia.org/wiki/Milky_Way",
      "body_sv":"För mer information gå in på: https://sv.wikipedia.org/wiki/Vintergatan"
   },
   {
      "ID":"000002",
      "header_fi":"Andromeda",
      "header_en":"Andromeda galaxy",
      "header_sv":"Andromedagalaxen",
      "body_fi":"Andromedan galaksi on lähin suuri naapurigalaksimme.\r\n\r\nLisätietoa: https://fi.wikipedia.org/wiki/Andromedan_galaksi",
      "body_en":"For further information, visit: https://en.wikipedia.org/wiki/Andromeda_Galaxy",
      "body_sv":"För mer information gå in på: https://sv.wikipedia.org/wiki/Andromedagalaxen"
   },
   {
      "ID":"000003",
      "header_fi":"NASA",
      "header_en":"NASA",
      "header_sv":"NASA",
      "body_fi":"NASA (National Aeronautics and Space Administration) on Yhdysvaltojen liittohallituksen alainen ilmailu- ja avaruushallintovirasto. Se vastaa yhdysvaltojen avaruusohjelmasta ja siviili-ilmailun tutkimuksesta.\r\n\r\nNASA perustettiin vuonna 1958. NASAn varhaiseen toimintaan vaikutti kilpajuoksu avaruuteen Neuvostoliiton avaruusohjelmaa kanssa.\r\n\r\nNASAn ensimmäinen miehitettyyn avaruuslentoon liittyvä hanke oli Mercury-ohjelma (1958-1962). Se tutki miehitetyn avaruuslennon ongelmia ja onnistui laukaisemaan miehitettyjä avaruusaluksia Maata kiertävälle radalle.\r\n\r\nMercury-ohjelmaa seurasi Gemini-ohjelma (1963-1966), jonka tarkoitus oli kehittää edistyneempiä avaruuden tutkimismenetelmiä. Gemini-ohjelmassa harjoiteltiin muun muassa muodostelmalentoa, avaruuskävelyä ja avaruusaluksiin telakoitumista. Gemini-ohjelmalla oli suuri merkitys sitä seuranneen Apollo-ohjelman kannalta.\r\n\r\nApollo-ohjelman (1961-1972) päätavoite oli tehdä miehitetty avaruuslento Kuuhun. Kilpailuasetelma Neuvostoliiton avaruusohjelman kanssa johti kiivaaseen työskentelyyn, jossa voimavaroja ei säästelty. 20.7.1969 ensimmäinen ihminen, amerikkalainen astronautti Neil Armstrong asteli Kuun pinnalla.\r\n\r\n1970-1980-luvuilla NASA keskittyi avaruussukkoloiden kehittämiseen. Niiden tehokkuus ei vastannut odotuksia ja ne olivat kalliita. Vuonna 1986 Challenger-avaruussukkula tuhoutui laukaisunsa aikana, mikä oli suuri takaisku NASAn sukkulaohjelmalle. NASAn sukkulaohjelma lopetettiin vuonna 2011.\r\n\r\nNASA oli mukana rakentamassa kansainvälistä avaruusasema ISS:ää yhdessä Venäjän, Euroopan, Japanin ja Kanadan kanssa. Se valmistui vuonna 2010 ja toimii vuoden 2020 loppuun asti.\r\n\r\n2000-luvun alussa NASA kaavaili uusia Kuu-lentoja toteutettavaksi 2018, mutta 2010 miehitettyjen lentojen uusiksi kohteiksi valittiinkin asteroidi ja Mars.\r\n\r\nLisätietoa: https://fi.wikipedia.org/wiki/Nasa",
      "body_en":"For further information, visit: https://en.wikipedia.org/wiki/NASA",
      "body_sv":"För mer information gå in på: https://sv.wikipedia.org/wiki/NASA"
   },
   {
      "ID":"000004",
      "header_fi":"ESA",
      "header_en":"ESA",
      "header_sv":"ESA",
      "body_fi":"ESA (European Space Agency) eli Euroopan avaruusjärjestö on kansainvälinen avaruusjärjestö. Se on perustettu vuonna 1975 ja siihen kuuluu 22 jäsenmaata. Suomi pääsi ESA:n jäseneksi vuonna 1995.\r\n\r\nVuonna 2005 ESA:n miehittämätön Huygens-luotain laskeutui onnstuneesti Saturnuksen Titan-kuun pinnalle. Luotaimen vei Titanin luo NASAn ja ESAn yhteinen Cassini-avaruusluotain. Osa Cassinin ja Huygensin laitteista toteutettiin Suomessa\r\n\r\nVuonna 2014 ESA:n miehittämättömän Rosetta-komeettaluotaimen Philae-laskeutuja laskeutui komeetan pinnalle. Rosettan runkorakenteen ja tehojärjestelmän laitteita suunnitteli ja rakensi suomalainen Patria. Myös Ilmatieteen laitos rakensi osia Rosettaan ja Philae-laskeutujaan.\r\n\r\nVuonna 2009 avaruuteen laukaistiin ESAn miehittämätön Herschel-avaruusobservatorio, joka havainnoi infrapuna-aallonpituusaluetta vuoteen 2013 asti. Herschelin pääpeilin valmisti Tuorlan observatoriossa toimiva Opteon Oy. Peilin halkaisija on 3,5 metriä ja se on suurin avaruuteen laukaistu peili.\r\n\r\nHerschelin kanssa avaruuteen laukaistiin ESAn Planck-avaruustutkimusasema. Sen havaintojen pohjalta saatiin aikansa tarkin kartoitus kosmisesta taustasäteilystä. Suomalainen Elektrobit Microwave -yhtiö suunnitteli ja valmisti Planckiin mikroaaltovastaanottimia. Tuorlan observatorio on tehnyt muun muassa galakseihin liittyvää tutkimusta Planckin mittaustulosten avulla.\r\n\r\nESA on myös kehittänyt kantoraketteja ja osallistunut Kansainvälisen avaruusaseman (ISS) miehitettyjen lentojen ohjelmiin.\r\n\r\nLisätietoa: https://fi.wikipedia.org/wiki/Euroopan_avaruusj%C3%A4rjest%C3%B6",
      "body_en":"For further information, visit: https://en.wikipedia.org/wiki/European_Space_Agency",
      "body_sv":"För mer information gå in på: https://sv.wikipedia.org/wiki/Europeiska_rymdorganisationen"
   },
   {
      "ID":"000005",
      "header_fi":"JAXA",
      "header_en":"JAXA",
      "header_sv":"JAXA",
      "body_fi":"JAXA (Japan Aerospace Exploration Agency) on Japanin avaruusjärjestö. Se muodostettiin vuonna 2003 kolmesta sitä edeltäneestä Japanin avaruusjärjestöstä.\r\n\r\nJAXA ja sitä edeltäneet järjestöt ovat kehittäneet lukuisia pieniä tiede-, kaukokartoitus- ja tietoliikennesatelliitteja. JAXAan kuuluva ISAS kehitti 1950-luvun alusta alkaen pieniä luotainraketteja ja 1970-luvun lopussa N1-kantoraketin. Niin ikään nykyisin JAXAan kuuluva NASDA kehitti kantoraketteja 1970-luvulta lähtien, sekä 1990-luvulla HOPE-nimistä avaruussukkulaa, joka ei koskaan valmistunut.\r\n\r\nKolme japanilaista valittiin vuonna 1999 astronauttikoulutukseen ja 2009 valittiin kaksi lisää. Ensimmäinen japanilainen avaruudessa oli televisiotoimittaja Toyohiro Akiyama. Hän lensi Mir-avaruusasemalle venäläisellä Sojuz-avaruusaluksella vuonna 1990.\r\n\r\nJapanin avaruusohjelma linkittyi aluksi Yhdysvaltojen NASAan ja 1990-luvulta alkaen Euroopan avaruusjärjestö ESAan päin.\r\n\r\nLisätietoa: https://fi.wikipedia.org/wiki/Japanin_avaruusj%C3%A4rjest%C3%B6",
      "body_en":"For further information, visit: https://en.wikipedia.org/wiki/JAXA",
      "body_sv":"För mer information gå in på: https://sv.wikipedia.org/wiki/Japan_Aerospace_Exploration_Agency"
   },
   {
      "ID":"000006",
      "header_fi":"ESO",
      "header_en":"ESO",
      "header_sv":"ESO",
      "body_fi":"ESO (European Southern Observatory) eli Euroopan eteläinen observatorio on Eurooppalainen avaruusjärjestö. Se perustettiin 1962 ja sitä ylläpitää 15 eurooppalaista valtiota. Suomi liittyi ESOon vuonna 2004.\r\n\r\nESOn perustustarkoitus oli luoda observatorio eteläiselle pallonpuoliskolle ja kehittää tähtitieteen kansainvälistä yhteistyötä.\r\n\r\nKaikki ESOn observatoriot sijaitsevat Atacaman aavikolla Chilessä. Atacaman olosuhteet ovat ihanteelliset maanpäällisen observatorion rakentamiseen, koska siellä ei sada juuri koskaan. Myöskään vähäinen ilmankosteus, pilvisyys ja kaupunkien tai teiden aiheuttamat valosaaste ja pöly eivät häiritse avaruuden havainnointia.\r\n\r\nAalto-yliopisto, Helsingin yliopisto, Oulun yliopisto ja Turun yliopisto perustivat vuonna 2010 uuden tähtitieteen kansallisen tutkimuslaitoksen, Suomen ESO-keskuksen. Se on Turun yliopiston erillinen laitos, joka toimii Tuorlan observatorion tiloissa.\r\n\r\nSuomen ESO-keskus huolehtii yhteistyöstä ESO:n kanssa verkottumalla ja osallistuen sen hankkeisiin. Lisäksi se harjoittaa ja koordinoi tähtitieteen tutkimusta Suomessa, edistää ESO:on liittyvää teknologista kehitystyötä, osallistuu alan tutkijakoulutukseen ja edistää Suomen yliopistojen tähtitieteeseen liittyvää yhteistyötä.\r\n\r\nLisätietoa: https://fi.wikipedia.org/wiki/Euroopan_etel%C3%A4inen_observatorio",
      "body_en":"For further information, visit: https://en.wikipedia.org/wiki/European_Southern_Observatory",
      "body_sv":"För mer information gå in på: https://sv.wikipedia.org/wiki/Europeiska_sydobservatoriet"
   },
   {
      "ID":"000007",
      "header_fi":"Neuvostoliiton avaruusohjelma",
      "header_en":"Soviet space program",
      "header_sv":"Sovjetunionens rymdprogram",
      "body_fi":"Neuvostoliiton avaruusohjelma toimi asevoimien alaisuudessa. Neuvostoliiton avaruusohjelman pohjana toimi Konstantin Tsiolkovskin (1857-1935) raketteja ja avaruusmatkoja koskevat teoriat. Raketti- ja avaruusalussuunnittelija Sergei Koroljov (1907-1966) oli merkittävä henkilö Neuvostoliiton avaruusohjelmassa. Neuvostoliiton hajottua Neuvostoliiton avaruusohjelman seuraajaksi perustettiin Venäjän avaruusjärjestö Roskosmos.\r\n\r\nNeuvostoliitto laukaisi maata kiertävälle radalle maailman ensimmäisen satelliitin, Sputnik 1:n vuonna 1957. Samana vuonna laukaistu Sputnik 2 kuljetti avaruuteen Laika-koiran. Neuvostoliiton saavutukset kiihdyttivät amerikkalaisten avaruusohjelmaa, mikä johti NASAn perustamiseen.\r\n\r\nLuna-ohjelman aikana (1959-1976) Neuvostoliitto laukaisi kuuhun 24 luotainta. Niiden mukana lähetettiin kuuhun automaattiset kulkuneuvot Lunahod 1 ja 2, ja tuotiin Maahan kuukivinäytteitä.\r\n\r\nVostok-ohjelma (1961-1963) oli Neuvostoliiton miehitetty avaruuslento-ohjelma, jossa harjoiteltiin muodostelmalentoa ja valmistauduttiin telakoitumiskokeisiin. Vostok-avaruusalus kehitettiin Zenit-vakoilusatelliitista. Ensimmäinen ihminen avaruudessa oli kosmonautti Juri Gagarin, joka kiersi Maan 108 minuuttia kestäneellä lennolla vuonna 1961 Vostok 1:llä.\r\n\r\nVoshod-ohjelmassa (1964-1965) kaksi miehitettyä lentoa, joista toisessa kosmonautti Aleksei Leonov suoritti maailman ensimmäisen avaruuskävelyn olemalla 12 minuuttia Voshod 2:n ulkopuolella.\r\n\r\nNeuvostoliitto oli monissa avaruuslentoihin liittyvissä asioissa ensimmäinen. Sojuz-ohjelman (1962-jatkuu yhä) ensimmäisen lennon myötä se sai valitettavan oikeuden olla ensimmäinen, jonka avaruuslentäjä menehtyi avaruudessa, kun kosmonautti Vladimir Komarov kuoli avaruuslennon aikana 1967. Neuvostoaikakaudella Sojuz-avaruusaluksia käytettiin lennoilla Saljut-avaruusasemille, Roskosmoksen aikana Mir- ja ISS-avaruusasemille.\r\n\r\nEnsimmäinen avaruusasema oli Saljut 1, joka laukaistiin avaruuteen vuonna 1971. Vuonna 1986 Neuvostoliitto laukaisi avaruuteen Mir-avaruusaseman perusmoduulin. Sen viimeinen moduuli laukaistiin avaruuteen kymmenen vuotta myöhemmin vuonna 1996. Mir oli ensimmäinen jatkuvasti miehitettynä ollut avaruusasema. Mir poistettiin käytöstä ja pudotettiin Maahan vuonna 2001. Jo vuonna 1976 aloitettu Mir 2 -asema jäi toteutumatta, mutta osa sitä varten kehitetyistä moduuleista päätyi osaksi kansainvälistä ISS-avaruusasemaa.\r\n\r\nLisätietoa: https://fi.wikipedia.org/wiki/Neuvostoliiton_avaruusohjelma",
      "body_en":"For further information, visit: https://en.wikipedia.org/wiki/Soviet_space_program",
      "body_sv":"För mer information gå in på: https://sv.wikipedia.org/wiki/Sovjetunionens_rymdprogram"
   },
   {
      "ID":"000008",
      "header_fi":"Roskosmos",
      "header_en":"Roscosmos",
      "header_sv":"Roskosmos",
      "body_fi":"Roskosmos on Venäjän avaruusjärjestö. Sen vastuulla on Venäjän siviiliavaruustoiminta sekä ilmailu- ja avaruustekniikan tutkimus. Roskosmos perustettiin Neuvostoliiton hajottua Neuvostoliiton avaruusohjelman seuraajaksi.\r\n\r\nVenäjän talousongelmat vaikuttivat 1990-luvulla Venäjän avaruusohjelmaan. Tilanne kohentui 2000-luvun alun myötä ja Roskosmos on kaavaillut muun muassa tieteellisiä Mars-lentoja.\r\n\r\nRoskosmoksen merkittävin panos 2000-luvulla on ollut Neuvostoliiton ajoilta periytyvien Sojuz-avaruuslentojen jatkaminen ja osallisuus ISS-avaruusaseman rakentamisessa. Se on myös toistaiseksi ainoa toimija avaruusturismin alalla.\r\n\r\nRoskosmos on kehittänyt 2000-luvulla Kliper-alusta, jonka arveltiin korvaavan Sojuz-alukset jo vuonna 2012.\r\n\r\nRoskosmos pyrkii toteuttamaan miehitetyn kuulennon vuoteen 2030 mennessä. Myös miehitetyn kuuaseman perustamista on ehdotettu.\r\n\r\nVuonna 2011 Roskosmoksen Phobos-Grunt -Mars-luotain tuhoutui onnistuneen laukaisun jälkeen avaruudessa, ilmeisesti ohjelmointivirheen vuoksi.\r\n\r\nVuonna 2012 julkaistun suunnitelman perusteella Roskosmoksen kiinnostuksen kohtia ovat satelliittitekniikan uudistaminen, avaruusromun siivoaminen ja asteroidien torjunta lähiavaruudessa, sekä planeettalennot Venukseen, Kuuhun ja jopa Jupiteriin.\r\n\r\nLisätietoa: https://fi.wikipedia.org/wiki/Ven%C3%A4j%C3%A4n_avaruusj%C3%A4rjest%C3%B6",
      "body_en":"For further information, visit: https://en.wikipedia.org/wiki/Roscosmos_State_Corporation",
      "body_sv":"För mer information gå in på: https://sv.wikipedia.org/wiki/Ryska_rymdflygstyrelsen"
   },
   {
      "ID":"000009",
      "header_fi":"Tähti",
      "header_en":"Star",
      "header_sv":"Stjärna",
      "body_fi":"Tähti on pääasiassa vedystä koostuvasta kaasusumusta painovoiman ansiosta kokoon romahtanut plasmapallo, jonka jossain kehitysvaiheessa sen ytimessä tapahtuu ydinfuusiota. Tähtiä luokitellaan spektrin ja luminositeetin mukaan. Tähdet muodostavat tähtijärjestelmiä.\r\n\r\nLisätietoa: https://fi.wikipedia.org/wiki/T%C3%A4hti",
      "body_en":"For further information, visit: https://en.wikipedia.org/wiki/Star",
      "body_sv":"För mer information gå in på: https://sv.wikipedia.org/wiki/Stj%C3%A4rna"
   },
   {
      "ID":"000010",
      "header_fi":"Planeetta",
      "header_en":"Planet",
      "header_sv":"Planet",
      "body_fi":"Planeetta on Aurinkoa kiertävä taivaankappale, jonka massa on niin suuri, että sen oma painovoima on muovannut sen pallomaiseksi, ja joka on puhdistanut ratansa lähiympäristön muista kappaleista.\r\n\r\nLisätietoa: https://fi.wikipedia.org/wiki/Planeetta",
      "body_en":"For further information, visit: https://en.wikipedia.org/wiki/Planet",
      "body_sv":"För mer information gå in på: https://en.wikipedia.org/wiki/Planet"
   },
   {
      "ID":"000011",
      "header_fi":"Asteroidi",
      "header_en":"Asteroid",
      "header_sv":"Asteroid",
      "body_fi":"Asteroidi on Aurinkoa kiertävä kappale, joka on pienempi kuin planeetta, mutta suurempi kuin meteoroidi. Suurin osa asteroideista on muodoltaan epäsäännöllisiä.\r\n\r\nLisätietoa: https://fi.wikipedia.org/wiki/Asteroidi",
      "body_en":"For further information, visit: https://en.wikipedia.org/wiki/Asteroid",
      "body_sv":"För mer information gå in på: https://sv.wikipedia.org/wiki/Asteroid"
   },
   {
      "ID":"000012",
      "header_fi":"Meteoroidi",
      "header_en":"Meteoroid",
      "header_sv":"Meteoroid",
      "body_fi":"Asteroidia pienempiä Aurinkokunnan kappaleita kutsutaan meteoroideiksi. Maahan putoava meteoroidi näkyy tähdenlentona eli meteorina. Maanpinnalle pudonnutta meteoroidia kutsutaan meteoriitiksi.\r\n\r\nLisätietoa: https://fi.wikipedia.org/wiki/Meteoroidi",
      "body_en":"For further information, visit: https://en.wikipedia.org/wiki/Meteoroid",
      "body_sv":"För mer information gå in på: https://sv.wikipedia.org/wiki/Meteoroid"
   },
   {
      "ID":"000013",
      "header_fi":"Galaksi",
      "header_en":"Galaxy",
      "header_sv":"Galax",
      "body_fi":"Galaksi on järjestelmä, joka koostuu tähdistä, kaasu- ja pölypilvistä, sekä pimeästä aineesta. Se pysyy koossa painovoiman ansiosta. Galaksit ovat kuin saaria muuten tyhjässä avaruudessa. Linnunrata on oma galaksimme.\r\n\r\nLisätietoa: https://fi.wikipedia.org/wiki/Galaksi",
      "body_en":"For further information, visit: https://en.wikipedia.org/wiki/Galaxy",
      "body_sv":"För mer information gå in på: https://sv.wikipedia.org/wiki/Galax"
   },
   {
      "ID":"000014",
      "header_fi":"Kuu",
      "header_en":"Moon",
      "header_sv":"Måne",
      "body_fi":"Planeetalla, kääpiöplaneetalla tai niitä pienemmälläkin kappaleella voi olla yksi tai useampi luonnollinen kiertolainen. Niitä kutsutaan yleisnimellä kuu. Maan kuu on myös nimeltään Kuu.\r\n\r\nLisätietoa: https://fi.wikipedia.org/wiki/Kuu_(yleisnimi)",
      "body_en":"For further information, visit: https://en.wikipedia.org/wiki/Natural_satellite",
      "body_sv":"För mer information gå in på: https://sv.wikipedia.org/wiki/M%C3%A5ne"
   },
   {
      "ID":"000015",
      "header_fi":"Komeetta",
      "header_en":"Comet",
      "header_sv":"Komet",
      "body_fi":"Komeetta muistuttaa asteroidia, mutta koostuu pääasiassa jäästä. Aurinkokunnan sisäosassa Auringon säteilypaine ja aurinkotuuli muovaavat komeetan hiukkasista Auringosta poispäin osoittavan pyrstön. Komeetta tunnetaankin myös nimellä pyrstyötähti.\r\n\r\nLisätietoa: https://fi.wikipedia.org/wiki/Komeetta",
      "body_en":"For further information, visit: https://en.wikipedia.org/wiki/Comet",
      "body_sv":"För mer information gå in på: https://sv.wikipedia.org/wiki/Komet"
   },
   {
      "ID":"000016",
      "header_fi":"Tähtijärjestelmä",
      "header_en":"Star system",
      "header_sv":"Stjärnsystem",
      "body_fi":"Tähtijärjestelmä on toisiaan lähellä olevien tähtien muodostama järjestelmä, kaksoistähti, kolmoistähti, neloistähti jne. Tähtijärjestelmän osat ovat toisiinsa sidoksissa painovoiman johdosta.\r\n\r\nLisätietoa: https://fi.wikipedia.org/wiki/T%C3%A4htij%C3%A4rjestelm%C3%A4",
      "body_en":"For further information, visit: https://en.wikipedia.org/wiki/Star_system",
      "body_sv":"För mer information gå in på: https://sv.wikipedia.org/wiki/Stj%C3%A4rnsystem"
   },
   {
      "ID":"000017",
      "header_fi":"AU",
      "header_en":"AU",
      "header_sv":"AE",
      "body_fi":"AU (en. Astronomical Unit) on tähtitieteellisten etäisyyksien ilmaisemisessa käytetty mittayksikkö. Yksi AU on sama kuin Maan etäisyys Auringosta. Se on noin 149,6 miljoonaa kilometriä.\r\n\r\nLisätietoa: https://fi.wikipedia.org/wiki/Astronominen_yksikk%C3%B6",
      "body_en":"For further information, visit: https://en.wikipedia.org/wiki/Astronomical_unit",
      "body_sv":"För mer information gå in på: https://sv.wikipedia.org/wiki/Astronomisk_enhet"
   },
   {
      "ID":"000018",
      "header_fi":"Valovuosi",
      "header_en":"Ligh-year",
      "header_sv":"Ljusår",
      "body_fi":"Valovuodella tarkoitetaan matkaa, jonka valo ehtii kulkea yhdessä vuodessa. Se on noin 9,46 biljoonaa kilometriä.\r\n\r\nLisätietoa: https://fi.wikipedia.org/wiki/Valovuosi",
      "body_en":"For further information, visit: https://en.wikipedia.org/wiki/Light-year",
      "body_sv":"För mer information gå in på: https://sv.wikipedia.org/wiki/Ljus%C3%A5r"
   },
   {
      "ID":"000019",
      "header_fi":"Gravitaatio",
      "header_en":"Gravity",
      "header_sv":"Gravitation",
      "body_fi":"Gravitaatio eli painovoima saa kaikki massalliset kappaleet vetämään toisiaan puoleensa. Kappaleitten vuorovaikutukseen vaikuttavat niiden massat ja etäisyys. Gravitaation vuoksi esimerkiksi esineet putoavat maahan ja toisaalta planeetat pysyvät Aurinkoa kiertävillä radoillaan.\r\n\r\nLisätietoa: https://fi.wikipedia.org/wiki/Painovoima",
      "body_en":"For further information, visit: https://en.wikipedia.org/wiki/Gravity",
      "body_sv":"För mer information gå in på: https://sv.wikipedia.org/wiki/Gravitation"
   },
   {
      "ID":"000020",
      "header_fi":"Sähkömagneettinen säteily",
      "header_en":"Electromagnetic radiation",
      "header_sv":"Elektromagnetisk strålning",
      "body_fi":"Sähkömagneettisen säteilyn osia ovat radioaallot, mikroaallot, infrapunasäteily, valo, ultraviolettisäteily, röntgensäteily ja gammasäteily.\r\n\r\nLisätietoa: https://fi.wikipedia.org/wiki/S%C3%A4hk%C3%B6magneettinen_s%C3%A4teily",
      "body_en":"For further information, visit: https://en.wikipedia.org/wiki/Electromagnetic_radiation",
      "body_sv":"För mer information gå in på: https://sv.wikipedia.org/wiki/Elektromagnetisk_str%C3%A5lning"
   },
   {
      "ID":"000021",
      "header_fi":"Tähden spektriluokka",
      "header_en":"Stellar classification",
      "header_sv":"Stjärnans spektralklass",
      "body_fi":"Spektriluokittelussa tähdet luokitellaan pintalämpötilan mukaan kuumimmasta viileimpään luokkiin O, B, A, F, G, K, M. Nämä luokat jaotellaan vielä kuumimmasta viileimpään numeroin 0-9. Auringon spektriluokka on G2. Spektri- ja luminositeettiluokittelu yhdistämällä saadaan HR-kaavio.\r\n\r\nLisätietoa: https://fi.wikipedia.org/wiki/Spektriluokka",
      "body_en":"For further information, visit: https://en.wikipedia.org/wiki/Stellar_classification",
      "body_sv":"För mer information gå in på: https://sv.wikipedia.org/wiki/Spektraltyp"
   },
   {
      "ID":"000022",
      "header_fi":"Tähden luminositeetti",
      "header_en":"Stellar luminosity",
      "header_sv":"Stjärnans luminositet",
      "body_fi":"Luminositeettiluokittelussa tähdet luokitellaan säteilytehon mukaan. Luminositeettiluokat ilmaistaan suurimmasta pienimpään roomalaisin numeroin I-V. Auringon luminositeettiluokka on V. Luminositeetti- ja spektriluokittelu yhdistämällä saadaan HR-kaavio.\r\n\r\nLisätietoa: https://fi.wikipedia.org/wiki/Luminositeetti",
      "body_en":"For further information, visit: https://en.wikipedia.org/wiki/Luminosity",
      "body_sv":"För mer information gå in på: https://sv.wikipedia.org/wiki/Luminositet"
   },
   {
      "ID":"000023",
      "header_fi":"HR-kaavio",
      "header_en":"HR diagram",
      "header_sv":"HR-diagram",
      "body_fi":"Hertzsprungin-Russelin kaavio yhdistää tähtien spektri- ja luminositeettiluokittelun. Spektri-arvot sijoittuvat vaaka-akselille ja luminositeettiarvot pystyakselille. Auringon luokitus on HR-asteikon mukaan G2 V.\r\n\r\nLisätietoa: https://fi.wikipedia.org/wiki/Hertzsprungin%E2%80%93Russellin_kaavio",
      "body_en":"For further information, visit: https://en.wikipedia.org/wiki/Hertzsprung%E2%80%93Russell_diagram",
      "body_sv":"För mer information gå in på: https://sv.wikipedia.org/wiki/Hertzsprung%E2%80%93Russell-diagram"
   },
   {
      "ID":"000024",
      "header_fi":"Plutoidi",
      "header_en":"Plutoid",
      "header_sv":"Plutoid",
      "body_fi":"Plutoidiksi kutsutaan kappaleita, jotka kiertävät Aurinkoa Neptunuksen radan ulkopuolella ja jotka ovat tarpeeksi massiivisia saavuttaakseen lähes pyöreän muodon, mutta liian pieniä planeetoiksi.\r\n\r\nLisätietoa: https://fi.wikipedia.org/wiki/Plutoidi",
      "body_en":"For further information, visit: https://en.wikipedia.org/wiki/Plutoid",
      "body_sv":"För mer information gå in på: https://sv.wikipedia.org/wiki/Plutoid"
   },
   {
      "ID":"000025",
      "header_fi":"Kääpiöplaneetta",
      "header_en":"Dwarf planet",
      "header_sv":"Dvärgplanet",
      "body_fi":"Kääpiöplaneetta on Aurinkoa kiertävä taivaankappale, jonka massa on niin suuri, että sen oma painovoima on muovannut sen pallomaiseksi, mutta se ei ole puhdistanut oman ratansa lähiympäristöä. Toisaalta se ei ole myöskään minkään muun taivaankappaleen kuu.\r\n\r\nLisätietoa: https://fi.wikipedia.org/wiki/K%C3%A4%C3%A4pi%C3%B6planeetta",
      "body_en":"For further information, visit: https://en.wikipedia.org/wiki/Dwarf_planet",
      "body_sv":"För mer information gå in på: https://sv.wikipedia.org/wiki/Dv%C3%A4rgplanet"
   },
   {
      "ID":"000026",
      "header_fi":"Planeettakunta",
      "header_en":"Planetary system",
      "header_sv":"Planetsystem",
      "body_fi":"Tähden ympärillä kiertävät planeetat muodostavat planeettakunnan. Auringon planeettakunnan muodostavat Merkurius, Venus, Maa, Mars, Jupiter, Saturnus, Uranus ja Neptunus. Nimi Aurinkokunta taas kattaa näitä laajemman kokonaisuuden.\r\n\r\nLisätietoa: https://fi.wikipedia.org/wiki/Planeettakunta",
      "body_en":"For further information, visit: https://en.wikipedia.org/wiki/Planetary_system",
      "body_sv":"För mer information gå in på: https://sv.wikipedia.org/wiki/Solsystem"
   },
   {
      "ID":"000027",
      "header_fi":"Sisäplaneetta",
      "header_en":"Inferior planet",
      "header_sv":"Nedre planet",
      "body_fi":"Merkuriusta ja Venusta kutsutaan sisäplaneetoiksi, koska niiden kiertoradat sijaitsevat Auringon ja Maan välissä, siis Maan kiertoradan sisäpuolella.\r\n\r\nLisätietoa: https://fi.wikipedia.org/wiki/Sis%C3%A4planeetta",
      "body_en":"For further information, visit: https://en.wikipedia.org/wiki/Inferior_and_superior_planets",
      "body_sv":"För mer information gå in på (sidan på norsk): https://no.wikipedia.org/wiki/Nedre_og_%C3%B8vre_planeter"
   },
   {
      "ID":"000028",
      "header_fi":"Kiviplaneetta",
      "header_en":"Terrestrial planet",
      "header_sv":"Stenplanet",
      "body_fi":"Kiviplaneetoiksi kutsutaan Maan kaltaisia planeettoja, joilla on kiinteä kuori, sulasta kiviaineksesta muodostuva vaippa ja rautaydin. Aurinkokuntamme kiviplaneettoja ovat Merkurius, Venus, Maa ja Mars.\r\n\r\nLisätietoa: https://fi.wikipedia.org/wiki/Maankaltainen_planeetta",
      "body_en":"For further information, visit: https://en.wikipedia.org/wiki/Terrestrial_planet",
      "body_sv":"För mer information gå in på: https://sv.wikipedia.org/wiki/Stenplanet"
   },
   {
      "ID":"000029",
      "header_fi":"Revontulet",
      "header_en":"Aurora",
      "header_sv":"Polarsken",
      "body_fi":"Aurinkotuuli on auringosta purkautuvaa hiukkasvirtaa. Toisinaan osa siitä läpäisee Maan magneettikentän ja vuorovaikuttaa yläilmakehän kaasuatomien kanssa. Aurinkotuulen korkeaenergiset hiukkaset kykenevät virittämään yläilmakehän neutraalien atomien valenssielektronit. Kun nämä palautuvat viritystilastaan, ne säteilevät fotoneja, jotka näkyvät revontulina.\r\n\r\nLisätietoa: https://fi.wikipedia.org/wiki/Revontulet",
      "body_en":"For further information, visit: https://en.wikipedia.org/wiki/Aurora",
      "body_sv":"För mer information gå in på: https://sv.wikipedia.org/wiki/Polarsken"
   },
   {
      "ID":"000030",
      "header_fi":"Musta aukko",
      "header_en":"Black hole",
      "header_sv":"Svart hål",
      "body_fi":"Raskaan tähden supernovaräjähdys voi synnyttää mustaksi aukoksi kutsutun äärimmäisen tiheän massakeskittymän. Sitä kutsutaan mustaksi aukoksi, koska siellä on niin voimakas painovoima, että edes valo ei kykene pakenemaan sieltä.\r\n\r\nKotigalaksimme, Linnunradan keskellä uskotaan olevan supermassiivinen musta aukko.\r\n\r\nLisätietoa: https://fi.wikipedia.org/wiki/Musta_aukko",
      "body_en":"For further information, visit: https://en.wikipedia.org/wiki/Black_hole",
      "body_sv":"För mer information gå in på: https://sv.wikipedia.org/wiki/Svart_h%C3%A5l"
   },
   {
      "ID":"000031",
      "header_fi":"Avaruuslentäjä",
      "header_en":"Astronaut",
      "header_sv":"Rymdfarare",
      "body_fi":"Avaruuslentäjäksi kutsutaan henkilöä, joka on lentänyt avaruudessa. Yhdysvalloissa avaruuslentäjästä käytetään nimitystä astronautti, Venäjällä kosmonautti ja Kiinassa taikonautti. Ranskassa taas vastaavassa käytössä on ollut nimitys spationautti ja Malesiassa angkasawan. Intiassa on pohdittu samaan käyttöön nimityksiä gaganautti ja antarikshyatri.\r\n\r\nLisätietoa: https://fi.wikipedia.org/wiki/Avaruuslent%C3%A4j%C3%A4",
      "body_en":"For further information, visit: https://en.wikipedia.org/wiki/Astronaut",
      "body_sv":"För mer information gå in på: https://sv.wikipedia.org/wiki/Rymdfarare"
   },
   {
      "ID":"000032",
      "header_fi":"Ulkoplaneetta",
      "header_en":"Superior planet",
      "header_sv":"Övre planet",
      "body_fi":"Ulkoplaneetoiksi kutsutaan Aurinkokunnan planeettoja, joiden kiertoradat sijaitsevat Maan kiertoradan ulkopuolella. Ne ovat siis Mars, Jupiter, Saturnus, Uranus ja Neptunus.\r\n\r\nLisätietoa: https://fi.wikipedia.org/wiki/Ulkoplaneetta",
      "body_en":"For further information, visit: https://en.wikipedia.org/wiki/Inferior_and_superior_planets",
      "body_sv":"För mer information gå in på (sidan på norsk): https://no.wikipedia.org/wiki/Nedre_og_%C3%B8vre_planeter"
   },
   {
      "ID":"000033",
      "header_fi":"Jättiläisplaneetta",
      "header_en":"Gas giant",
      "header_sv":"Gasjätte",
      "body_fi":"Jättiläisplaneetalla tarkoitetaan Jupiteria muistuttavaa planeettaa. Ne ovat suuria ja niissä on runsaasti kaasumaisia ainesosia. Jättiläisplaneetasta voidaan käyttää myös nimitystä kaasujättiläinen tai joviaaninen planeetta. Joviaaninen viittaa juuri nimeen Jupiter.\r\n\r\nAurinkokunnan jättiläisplaneetat ovat Jupiter, Saturnus, Uranus ja Neptunus.\r\n\r\nUranusta ja Neptunusta kutsutaan myös jääjättiläisiksi, koska niiden arvellaan koostuvan enimmäkseen jäästä.\r\n\r\nLisätietoa: https://fi.wikipedia.org/wiki/J%C3%A4ttil%C3%A4isplaneetta",
      "body_en":"For further information, visit: https://en.wikipedia.org/wiki/Gas_giant",
      "body_sv":"För mer information gå in på: https://sv.wikipedia.org/wiki/Gasj%C3%A4tte"
   },
   {
      "ID":"000034",
      "header_fi":"Aurinko ☉",
      "header_en":"Sun ☉",
      "header_sv":"Solen ☉",
      "body_fi":"Halkaisija: 1392000 km\r\n\r\nEtäisyys Linnunradan keskipisteestä: 27200 valovuotta\r\n\r\nKiertoaika Linnunradan keskipisteen ympäri: 226000000 v\r\n\r\nPyörähdysaika: n. 30 vrk\r\n\r\n333400 Maan massaa\r\n\r\nAurinko on lähin tähtemme. Sen lämpötila on niin korkea, että kaikki aine esiintyy neljännessä olomuodossa eli plasmana. Auringon ytimessä tapahtuvassa ydinfuusiossa vety muuttuu heliumiksi. Tämä ydinfuusio saa aikaan Auringon tuottaman energian ja säteilyn.\r\n\r\nFuusioreaktio tapahtuu Auringon ytimessä, joka muodostaa neljänneksen koko Auringon läpimitasta. Ydintä ympäröi säteilyvyöhyke, jonka kautta ytimestä tuleva energia siirtyy pinnalle. Energia siirtyminen ytimestä pintaan kestää kymmeniä miljoonia vuosia.\r\n\r\nSäteilyvyöhykkeen yläpuolella on konvektiovyöhyke, jossa energia siirtyy virtaavan aineen mukana Auringon pinnalle. Jäähdyttyään pinnalle noussut konvektiovyöhykkeen aine vajoaa takaisin kohti ydintä.\r\n\r\nAuringon pintakerroksesta eli fotosfääristä energiaa säteilee ympäröivään avaruuteen. Suurin osa Auringon säteilystä on näkyvää valoa ja infrapunasäteilyä, mutta kaikki sähkömagneettisen säteilyn aallonpituudet ovat edustettuina.\r\n\r\nAuringon kaasukehä koostuu kromosfääristä eli värikehästä ja kauas ulottuvasta koronasta. Korona muodostuu hyvin harvasta, mutta kuumasta plasmasta.\r\n\r\nSe muodostui noin 5 miljardia vuotta sitten ja on nyt elinkaarensa keskivaiheilla. Vedyn ehdyttyä Auringon keskustasta seuraavan viiden miljardin vuoden kuluttua, Aurinko laajenee hitaasti punaiseksi jättiläiseksi. Lopulta se puhaltaa uloimmat kerroksensa planetaariseksi sumuksi. Sitten sen ydin paljastuu ja muuttuu valkoiseksi kääpiöksi, jäähtyen sitten hitaasti mustaksi kääpiöksi.\r\n\r\nTähtien spektriluokittelussa Auringon spektriluokka on G2 V ja HR-kaaviossa se sijoittuu tähtien pääsarjaan.\r\n\r\nLisätietoa: https://fi.wikipedia.org/wiki/Aurinko",
      "body_en":"For further information, visit: https://en.wikipedia.org/wiki/Sun",
      "body_sv":"För mer information gå in på: https://sv.wikipedia.org/wiki/Solen"
   },
   {
      "ID":"000035",
      "header_fi":"Kuu ☽",
      "header_en":"Moon ☽",
      "header_sv":"Månen ☽",
      "body_fi":"Halkaisija: 3474,2 km\r\n\r\nEtäisyys Maasta: 384400 km\r\n\r\nKiertoaika Maan ympäri: 27,3 vrk\r\n\r\nPyörähdysaika: 27,3 vrk\r\n\r\n0,0123 Maan massaa\r\n\r\n Kuu on Maan ainoa luonnollinen kiertolainen. Se on Aurinkokunnan viidenneksi suurin kuu ja suurin suhteessa emoplaneettaansa. Kuusta näkyy Maahan aina sama puoli, koska se on vuorovesilukkiutunut Maan kanssa.\r\n\r\nKuun arvellaan syntyneen 4,5 miljardia vuotta sitten, kun protoplaneetta Theia törmäsi nuoreen Maahan. Kuu olisi muodostunut Törmäyksessä irronneesta materiaalista.\r\n\r\nKuun kuori koostuu kevyistä kivilajeista. Nasan havaintojen ja tutkimusten mukaan Kuussa on suuri määrä jäätynyttä vettä.\r\n\r\nKuu kiertää Maan ympäri reilussa 27:ssä vuorokaudessa. Kuun vaiheilla on ollut aina merkittävä asema ihmiskulttuureiden ajanmittauksessa. Esimerkiksi kuukausi jo nimensäkin perusteella pohjautuu Kuun kiertoaikaan Maan ympäri.\r\n\r\nKuu on ainoa vieras taivaankappale, jolla ihminen on käynyt. Ensimmäisinä siellä kävivät amerikkalaiset astronautit Neil Armstrong ja Buzz Aldrind. Kuussa on viimeksi käyty 1972.\r\n\r\nLisätietoa: https://sv.wikipedia.org/wiki/Solen",
      "body_en":"For further information, visit: https://en.wikipedia.org/wiki/Moon",
      "body_sv":"För mer information gå in på: https://sv.wikipedia.org/wiki/M%C3%A5nen"
   },
   {
      "ID":"000036",
      "header_fi":"Asteroidivyöhyke",
      "header_en":"Asteroid belt",
      "header_sv":"Asteroidbältet",
      "body_fi":"Asteroidivyöhyke sijaitsee Marsin ja Jupiterin ratojen välisessä avaruudessa, noin 2 - 4:n AU:n etäisyydellä Auringosta. Vyöhyke koostuu asteroideiksi kutsutuista pienehköistä taivaankappaleista. Asteroidivyöhykettä kutsutaan myös päävyöhykkeeksi, koska asteroideja on Aurinkokunnan muissakin osissa.\r\n\r\nJupiterin ja Marsin ratojen väliin jääneet asteroidit eivät kyenneet muodostumaan planeetaksi Jupiterin gravitaatiovaikutuksen takia.\r\n\r\nLisätietoa: https://fi.wikipedia.org/wiki/Asteroidivy%C3%B6hyke",
      "body_en":"For further information, visit: https://en.wikipedia.org/wiki/Asteroid_belt",
      "body_sv":"För mer information gå in på: https://sv.wikipedia.org/wiki/Asteroidb%C3%A4ltet"
   },
   {
      "ID":"000037",
      "header_fi":"Kuiperin vyöhyke",
      "header_en":"Kuiper belt",
      "header_sv":"Kuiperbältet",
      "body_fi":"Kuiperin vyöhykeellä tarkoitetaan Neptunuksen radan takaista Aurinkokunnan vyöhykettä, 30 - 55 AU:n etäisyydellä Auringosta. Siellä sijaitsevia pienehköjä taivaankappaleita kutsutaan asteroidien sijaan transneptunisiksi kohteiksi. Näistä kääpiöplaneetta Pluto on yksi tunnetuimmista.\r\n\r\nLisätietoa: https://fi.wikipedia.org/wiki/Kuiperin_vy%C3%B6hyke",
      "body_en":"For further information, visit: https://en.wikipedia.org/wiki/Kuiper_belt",
      "body_sv":"För mer information gå in på: https://sv.wikipedia.org/wiki/Kuiperb%C3%A4ltet"
   },
   {
      "ID":"000038",
      "header_fi":"Hajanainen kiekko",
      "header_en":"Scattered disc",
      "header_sv":"Scattered disc",
      "body_fi":"Hajanainen kiekko on Kuiperin vyöhykkeen jatke, joka sijaitsee Aurinkokunnan ulko-osassa 30 - 100 AU:n etäisyydellä Auringosta. Siellä kiertää jäisiä pikkuplaneettoja yleensä soikeilla radoilla.\r\n\r\nLisätietoa: https://fi.wikipedia.org/wiki/Hajanainen_kiekko",
      "body_en":"For further information, visit: https://en.wikipedia.org/wiki/Scattered_disc",
      "body_sv":"För mer information gå in på: https://sv.wikipedia.org/wiki/Scattered_disc"
   },
   {
      "ID":"000039",
      "header_fi":"Pluto ♇",
      "header_en":"Pluto ♇",
      "header_sv":"Pluto ♇",
      "body_fi":"Halkaisija: 2370 km\r\n\r\nEtäisyys Auringosta: 5917 milj.km\r\n\r\nKiertoaika Auringon ympäri: 248,6 v\r\n\r\nPyörähdysaika: 366,7 vrk\r\n\r\n0,0021 Maan massaa\r\n\r\n5 kuuta\r\n\r\nPluto on kääpiöplaneetta, plutoidi ja Kuiperin vyöhykkeen suurin kappale. Pluto muodostaa kaksoisjärjestelmän suurimman kiertolaisensa Kharonin kanssa. Vuoteen 2006 asti Plutoa pidettiin Aurinkokunnan yhdeksäntenä planeettana.\r\n\r\nLisätietoa: https://fi.wikipedia.org/wiki/Pluto_(k%C3%A4%C3%A4pi%C3%B6planeetta)",
      "body_en":"For further information, visit: https://en.wikipedia.org/wiki/Pluto",
      "body_sv":"För mer information gå in på: https://sv.wikipedia.org/wiki/Pluto"
   },
   {
      "ID":"000040",
      "header_fi":"Oortin pilvi",
      "header_en":"Oort cloud",
      "header_sv":"Oorts kometmoln",
      "body_fi":"Oortin pilvi on Aurinkokunnan ulko-osissa sijaitseva komeettapilvi. Sen ulkoraja ulottuu aina 100000 AU:n etäisyydelle Auringosta.\r\n\r\nLisätietoa: https://fi.wikipedia.org/wiki/Oortin_pilvi",
      "body_en":"For further information, visit: https://en.wikipedia.org/wiki/Oort_cloud",
      "body_sv":"För mer information gå in på: https://sv.wikipedia.org/wiki/Oorts_kometmoln"
   },
   {
      "ID":"000041",
      "header_fi":"V774104",
      "header_en":"V774104",
      "header_sv":"V774104",
      "body_fi":"Halkaisija: 500-1000 km\r\n\r\nEtäisyys Auringosta: 15,4 mrd.km\r\n\r\nV774104 on toistaiseksi kaukaisin Aurinkokunnassa havaittu kappale.\r\n\r\nLisätietoa (englanniksi): https://en.wikipedia.org/wiki/V774104",
      "body_en":"For further information, visit: https://en.wikipedia.org/wiki/V774104",
      "body_sv":"För mer information gå in på (sidan på engelska): https://en.wikipedia.org/wiki/V774104"
   },
   {
      "ID":"000042",
      "header_fi":"Aurinkokunta",
      "header_en":"Solar system",
      "header_sv":"Solsystem",
      "body_fi":"Aurinkokunta on järjestelmä, jonka muodostavat Aurinko ja sitä kiertävät kappaleet, kuten planeetat, asteroidit, meteoroidit, kuut, komeetat, pikkuplaneetat ja transneptuniset kohteet.\r\n\r\nLisätietoa: https://fi.wikipedia.org/wiki/Aurinkokunta",
      "body_en":"For further information, visit: https://en.wikipedia.org/wiki/Solar_System",
      "body_sv":"För mer information gå in på: https://sv.wikipedia.org/wiki/Solsystemet"
   },
   {
      "ID":"000043",
      "header_fi":"Piirustukset #2",
      "header_en":"Blueprint #2",
      "header_sv":"",
      "body_fi":"",
      "body_en":"",
      "body_sv":""
   },
   {
      "ID":"000044",
      "header_fi":"Runko",
      "header_en":"Bus",
      "header_sv":"",
      "body_fi":"Runko on satelliitin päärakenne. Sen on oltava tukeva, jotta satelliitti kestää laukaisussa ja myöhemmin koetut voimat ja rasituksen. Samalla sen täytyy olla massaltaan kevyt. Runko liittyy myös satelliitin lämmön säätelyyn.",
      "body_en":"",
      "body_sv":""
   },
   {
      "ID":"000045",
      "header_fi":"Tehojärjestelmä",
      "header_en":"Power subsystem",
      "header_sv":"",
      "body_fi":"Tehojärjestelmä tuottaa satelliitille sähköä esimerkiksi aurinkopaneeleita hyödyntäen. Sähköä varastoidaan akkuun, koska satelliitin on toimittava silloinkin kun aurinkopaneeleita voida käyttää.",
      "body_en":"",
      "body_sv":""
   },
   {
      "ID":"000046",
      "header_fi":"Tietoliikennejärjestelmä",
      "header_en":"Communication system",
      "header_sv":"",
      "body_fi":"Tietoliikennejärjestelmä eli radiojärjestelmä vastaanottaa komentoja Maasta ja lähettää Maahan tietoja. Satelliittiin saapuva viestiliikenne käyttää eri taajuutta kuin satelliitista lähtevä.",
      "body_en":"",
      "body_sv":""
   },
   {
      "ID":"000047",
      "header_fi":"Asennonsäätöjärjestelmä",
      "header_en":"Attitude and orbit control system",
      "header_sv":"",
      "body_fi":"Asennonsäätöjärjestelmä tarkkailee erilaisilla antureilla satelliitin asentoa ja tekee tarpeelliset asentokorjaukset. Tämä vie paljon satelliitin tietokoneen laskentatehoa. (Asennonkorjaus kuluttaa myös ajoainetta.)",
      "body_en":"",
      "body_sv":""
   },
   {
      "ID":"000048",
      "header_fi":"Propulsiojärjestelmä",
      "header_en":"Propulsion system",
      "header_sv":"",
      "body_fi":"Propulsiojärjestelmällä muutetaan tai ylläpidetään satelliitin kiertorataa. Järjestelmän rakettimoottori käyttää yleensä kiinteää tai nestemäistä ajoainetta.",
      "body_en":"",
      "body_sv":""
   },
   {
      "ID":"000049",
      "header_fi":"Tietokone",
      "header_en":"Computer",
      "header_sv":"Dator",
      "body_fi":"Tietokone voi olla erityisesti satelliittikäyttöön suunniteltu tai se voi pohjautua olemassa oleviin prosessoriarkitehtuureihin. Joka tapauksessa sen on oltava säteilyltä suojattu.",
      "body_en":"",
      "body_sv":""
   },
   {
      "ID":"000050",
      "header_fi":"Satelliitti",
      "header_en":"Satellite",
      "header_sv":"Satellit",
      "body_fi":"Satelliitti koostuu satelliittirungosta ja hyötykuormasta eli laitteista, jotka runko kuljettaa avaruuteen. Satelliittimme hyötykuormaan kuului tavallisten osien ohella  peilikaukoputki ja tarkalleen ottaen se onkin avaruusobservatorio. Muita satelliittityyppejä ovat kartoitus-, sää-, tiedustelu-,  tietoliikenne- ja paikannussatelliitti.\r\n\r\nLisätietoa: https://fi.wikipedia.org/wiki/Satelliitti",
      "body_en":"For further information, visit: https://en.wikipedia.org/wiki/Satellite",
      "body_sv":"För mer information gå in på: https://sv.wikipedia.org/wiki/Satellit"
   },
{
      "ID":"000051",
      "header_fi":"Ekvatoriaalinen pystytys",
      "header_en":"Equatorial mount",
      "header_sv":"",
      "body_fi":"Joissain kaukoputkissa käytetään ekvatoriaalista pystytystä. Se tarkoittaa sitä, että jalusta on asennettu kallistuskulmaan, joka on sama kuin sijaintipaikan maantieteellisen leveyspiirin asteluku. Suomessa se on 60 astetta. Tämän asennon johdosta kaukoputkella voidaan helpommin seurata havaittavan kohteen liikettä taivaankannella.\r\n\r\nLisätietoa: https://fi.wikipedia.org/wiki/T%C3%A4htikaukoputki#Pystytys",
      "body_en":"For further information, visit: https://en.wikipedia.org/wiki/Equatorial_mount",
      "body_sv":"För mer information gå in på (sidan på norsk): https://nn.wikipedia.org/wiki/Ekvatorialinstrument"
   }
]