[
  {
    "ID": "000001",
    "header_fi": "Merkurius ☿",
    "header_en": "Mercury ☿",
    "header_sv": "Merkurius ☿",
    "body_fi": "Merkurius on Auringosta katsottuna ensimmäinen Aurinkokunnan planeetta. Se kuuluu Aurinkokunnan pieniin sisäplaneettoihin ja on niiden muiden tavoin tyypiltään kiviplaneetta.\r\n\r\nMerkuriuksen lämpötila vaihtelee eri vuorokauden aikojen mukaan -173:n ja 427:n celsiusasteen välillä. Suuri lämpötilanvaihtelu aiheutuu siitä, että Merkuriuksella ei ole kunnollista kaasukehää, joka tasoittaisi lämpötililaa.\r\n\r\nMerkuriuksen pinta on täynnä kraattereita ja se muistuttaa Kuun pintaa.\r\n\r\nMerkuriuksen silikaattikuoren alla on ohuehko, sula vaippa. Planeetan sisärakennetta hallitsee valtava rautaydin.\r\n\r\nMerkuriuksen kiertorata on hyvin soikea ja sen soikeus vaihtelee. Merkuriuksen akselikallistuma, 0,01 astetta, on niin vähäinen, että se on käytännössä pystyasennossa ratatasoonsa nähden.\r\n\r\nESA ja JAXA ovat kehittäneet BebiColombo-luotainta, joka laukaistaan tutkimaan Merkuriusta 2017.\r\n\r\nLisätietoa: https://fi.wikipedia.org/wiki/Merkurius",
    "body_en": "Mercury is the smallest and innermost planet in the Solar System. Its orbital period around the Sun of 88 days is the shortest of all the planets in the Solar System. It is named after the Roman deity Mercury, the messenger to the gods.\r\n\r\nLike Venus, Mercury orbits the Sun within Earth's orbit as an inferior planet, so it can only be seen visually in the morning or the evening sky, and never exceeds 28° away from the Sun. Also, like Venus and the Moon, the planet displays the complete range of phases as it moves around its orbit relative to Earth. Seen from Earth, this cycle of phases reoccurs approximately every 116 days, the so-called synodic period. Although Mercury can appear as a bright star-like object when viewed from Earth, its proximity to the Sun often makes it more difficult to see than Venus.",
    "body_sv": "För mer information gå in på: https://sv.wikipedia.org/wiki/Merkurius"
  },
  {
    "ID": "000002",
    "header_fi": "Venus ♀",
    "header_en": "Venus ♀",
    "header_sv": "Venus ♀",
    "body_fi": "Venus on Auringosta katsottuna toinen Aurinkokunnan planeetta. Se kuuluu Aurinkokunnan pieniin sisäplaneettoihin ja on niiden muiden tavoin tyypiltään kiviplaneetta.\r\n\r\nVenuksen kaasukehä koostuu pääasiassa hiilidioksidista. Sen aiheuttama kasvihuonevaikutus lämmittää Venusta ja se onkin Aurinkokunnan kuumin planeetta, vaikkei ole lähinnä Aurinkoa. Pinnan lämpötila on 460 celsiusastetta, mutta se voi saavuttaa jopa 500:n celsiusasteen lämpötilan. Venuksen pintaa hallitsee tulivuoritoiminta\r\n\r\nVenuksen rakenne muistuttaa paljon Maan rakennetta. Sillä on yhtenäinen kuori, jonka alla on sulaa kiviainesta ja sisimpänä rautaydin, jonka halkaisija on noin 6000 kilometriä.\r\n\r\nVenuksen akselin kallistuskulma sen ratatasoon nähden on 177,36 astetta. Tämä tarkoittaa sitä, että sen pyörähdyssuunta näyttää takaperoiselta verrattuna esimerkiksi Maan pyörähdyssuntaan.\r\n\r\nVaikka Venuksen olosuhteet ovat elämälle vihamieliset, Nasa on esittänyt suunnitelman rakentaa sen kaasukehään leijuvan siirtokunnan.\r\n\r\nLisätietoa: https://fi.wikipedia.org/wiki/Venus",
    "body_en": "For further information, visit: https://en.wikipedia.org/wiki/Venus",
    "body_sv": "För mer information gå in på: https://sv.wikipedia.org/wiki/Venus"
  },
  {
    "ID": "000003",
    "header_fi": "Maa ⊕",
    "header_en": "Earth ⊕",
    "header_sv": "Jorden ⊕",
    "body_fi": "Maapallo on Auringosta katsottuna kolmas Aurinkokunnan planeetta. Se kuuluu Aurinkokunnan pieniin planeettoihin, joita kutsutaan kiviplaneetoiksi tai maankaltaisiksi planeetoiksi, koska niillä on samankaltainen rakenne.Maapallo tunnetaan myös nimellä Tellus.\r\n\r\nMaa on ainoa tuntemamme paikka, jossa varmasti esiintyy elämää. Elämän edellytyksiä ovat mm. nestemäinen vesi ja Auringon jatkuva valoenergiavirta. Ihmiselämän kannalta Maapallon ilmasto on keskeinen. Ilmastomme suuri happipitoisuus on kasvikunnan aikaansaama. Kasvilajeja on yli 400000 ja eläinlajeja 30-100 miljoonaa.\r\n\r\nMaa on koostumukseltaan Aurinkokunnan tihein planeetta. Muiden kivipleettojen tavoin Maalla on kuori, sen alla sula vaippa ja keskellä rautaydin.\r\n\r\nSula rautaydin on meille elintärkeä. Sen tuottama magneettikenttä suojaa elämää säteilyltä ja Auringon aiheuttamalta hiukkaspommitukselta, joka toisinaan näkyy revontulina\r\n\r\nMaalla on kiertolaisenaan yksi kuu, jonka nimikin on Kuu.\r\n\r\nLisätietoa: https://fi.wikipedia.org/wiki/Maa",
    "body_en": "For further information, visit: https://en.wikipedia.org/wiki/Earth",
    "body_sv": "För mer information gå in på: https://sv.wikipedia.org/wiki/Jorden"
  },
  {
    "ID": "000004",
    "header_fi": "Mars ♂",
    "header_en": "Mars ♂",
    "header_sv": "Mars ♂",
    "body_fi": "Mars on Auringosta katsottuna neljäs Aurinkokunnan planeetta. Se kuuluu Aurinkokunnan pikkuplaneettoihin. Koska Marsin kiertorata on Maan kiertorataa ulompana, se kuuluu ulkoplaneettoihin. Planeettatyypiltään sitä kutsutaan kiviplaneetaksi tai maankaltaiseksi planeetaksi, koska sillä on samankaltainen rakenne kuin Maapallolla.\r\n\r\nMarsin tunnusomainen punainen väri johtuu sen pinnalla olevan rautaoksidin suuresta määrästä. Marsissa on vettä jäänä, nesteenä ja höyrynä. Marsilla on ohut kaasukehä, joka koostuu enimmäkseen hiilidioksidista. Mars on ihmiselle elinkelvoton.\r\n\r\nMarsilla on kaksi pientä kuuta, Phobos ja Deimos, jotka se on mahdollisesti kaapannut läheisestä asteroidivyöhykkestä.\r\n\r\nESA on aloittanut miehitettyyn Mars-lentoon tähtäävän Aurora-ohjelman. Neuvostoliitto laukaisi 1980-luvulla Marsiin kaksi Phobos-luotainta ja Mars-96 -luotaimen. NASA on suunnitellut Marsiin miehitettyä avaruuslentoa, joka voisi tapahtua aikaisintaan 2030.\r\n\r\nLisätietoa: https://fi.wikipedia.org/wiki/Mars",
    "body_en": "For further information, visit: https://en.wikipedia.org/wiki/Mars",
    "body_sv": "För mer information gå in på: https://sv.wikipedia.org/wiki/Mars_(planet)"
  },
  {
    "ID": "000005",
    "header_fi": "Jupiter ♃",
    "header_en": "Jupiter ♃",
    "header_sv": "Jupiter ♃",
    "body_fi": "Jupiter on Auringosta katsottuna viides Aurinkokunnan planeetta. Se kuuluu Aurinkokunnan suuriin ulkoplaneettoihin ja jättiläisplaneettoihin.\r\n\r\nJupiter on Aurinkokunnan suurin planeetta, jonka massa on yksin 2,5 kertaa suurempi kuin kaikkien muiden planeettojen massa yhteensä.\r\n\r\nJupiter koostuu enimmäkseen nestemäisestä vedystä ja heliumista. Planeetasta näkyy vain sen pilvien yläosa. Sen tunnusomaisia piirteitä ovat vaaleat ja tummat raidat sekä erityisesti suuri punainen pilkku. Pilkku on Aurinkokunnan suurin pyörremyrsky, joka on luonteeltaan pysyvä. Jupiterilla on myös ohuet renkaat, jotka eivät näy Maahan asti.\r\n\r\nJupiterin kaasukehä on noin tuhat kilometriä paksu. Sen alla oleva nestemäisen vedyn ja heliumin kerros on yli 40000:n tuhannen kilometrin paksuinen. Sen alapuolella vety muuttuu kiinteäksi. Sisimpänä arvellaan olevan kiinteä rautasilikaattiydin.\r\n\r\nJupiterilla on 69 kuuta, joista isoimmat ovat Io, Europa, Ganymedes ja Kallisto. Io lienee Aurinkokunnan vulkaanisin eli tuliperäisin taivaankappale. Europan jääkuoren alla saattaa olla meri ja mahdollisesti elämää. Ganymedes on Aurinkokunnan suurin kuu, halkaisijaltaan jopa suurempi kuin planeetta Merkurius. Kallisto on jokseenkin Merkuriuksen kokoinen ja pinnaltaan Aurinkokunnan kraatteroitunein kuu.\r\n\r\nJupiteria ovat tutkineet muun muassa Pioneer-, Voyager-, Galileo-, Cassini-Hyugens-, New Horizons- ja Juno-luotaimet.\r\n\r\nLisätietoa: https://fi.wikipedia.org/wiki/Jupiter",
    "body_en": "For further information, visit: https://en.wikipedia.org/wiki/Jupiter",
    "body_sv": "För mer information gå in på: https://sv.wikipedia.org/wiki/Jupiter"
  },
  {
    "ID": "000006",
    "header_fi": "Saturnus ♄",
    "header_en": "Saturn ♄",
    "header_sv": "Saturnus ♄",
    "body_fi": "Saturnus on Auringosta katsottuna kuudes Aurinkokunnan planeetta. Se kuuluu Aurinkokunnan suuriin ulkoplaneettoihin ja jättiläisplaneettoihin.\r\n\r\nSaturnus on Aurinkokunnan toiseksi suurin planeetta, joka tunnetaan valtavista renkaistaan. Renkaat koostuvat pii- ja rautaoksideista sekä jäästä. Saturnus on navoiltaan selvästi litistynyt. Tämä johtuu sen nopeasta pyörimisliikkeestä ja planeetan sisäisestä rakenteesta\r\n\r\nSuurin osa Saturnuksesta on nestemäistä vetyä ja heliumia, kuten Jupiterissa. Niin ikään Saturnuksen keskellä lienee kiinteä kivinen ja rautainen ydin.\r\n\r\nSillä on 62 kuuta, joista suurimmat ovat Titan, Rhea, Japetus, Dione ja Tethys. Titan on ainoa Aurinkokunnan kuu, jolla on merkittävä kaasukehä. Rhealla saattaa olla oma rengasjärjestelmä. Japetuksen pinnan puoliskoista toinen on tumma, toinen vaalea. Dione on Saturnuksen kuista koostumukseltaan tihein. Tethys-kuun pinnasta otettu lämpökarttakuva muistuttaa Pac-Man -pelin hahmoa.\r\n\r\nSaturnusta ovat tutkineet muun muassa Pioneer-, Voyager- ja Cassini-Hyugens-luotaimet. Viimeksi mainittu saapui vuonna 2004 Saturnuksen kiertoradalle tutkimaan planeetan lisäksi sen kuu- ja rengasjärjestelmää. Se laski myös Titan-kuun pinnalle Huygens-luotaimen vuonna 2005.\r\n\r\nLisätietoa: https://fi.wikipedia.org/wiki/Saturnus",
    "body_en": "For further information, visit: https://en.wikipedia.org/wiki/Saturn",
    "body_sv": "För mer information gå in på: https://sv.wikipedia.org/wiki/Saturnus"
  },
  {
    "ID": "000007",
    "header_fi": "Uranus ⛢",
    "header_en": "Uranus ⛢",
    "header_sv": "Uranus ⛢",
    "body_fi": "Uranus on Auringosta katsottuna seitsemäs Aurinkokunnan planeetta. Se kuuluu Aurinkokunnan suuriin ulkoplaneettoihin ja jättiläisplaneettoihin.\r\n\r\nUranuksen pyörähdysakselin kallistuskulma on poikkeuksellisen suuri. Se näyttää ikään kuin pyörivän kyljellään kiertorataansa nähden.Uranuksella on himmeä rengasjärjestelmä.\r\n\r\nUranus koostuu enimmäkseen vedystä. Planeetan turkoosinsininen pinnan väritys johtuu sen kaasukehässä olevasta metaanista. Kaasukehän alainen planeetan koostumus on nestemäinen\r\n\r\nUranuksella on 27 kuuta, joista suurimmat ovat Titania, Oberon, Umbriel ja Ariel. Titanian pinnassa on kraatterien lisäksi paljon kanjoneita ja halkeamia. Oberonin pinnalta tunnetaan pitkiä, kapeita, jyrkkäreunaisia vajoamia, ja kraattereita, joiden pohjaa peittää tunnistamaton tumma materiaali. Umbriel on Uranuksen kuista geologisesti passiivisin ja väriltään tummin, poikkeuksena silmiinpistävä Wunda-niminen vaalea rengas. Arielin pinnalla on siirroskanjoneita ja nestemäisen veden purkausjäänteitä.\r\n\r\nUranusta ovat tutkineet muun muassa Voyager 2 -luotain ja Hubble-avaruusteleskooppi.\r\n\r\nLisätietoa: https://fi.wikipedia.org/wiki/Uranus",
    "body_en": "For further information, visit: https://en.wikipedia.org/wiki/Uranus",
    "body_sv": "För mer information gå in på: https://sv.wikipedia.org/wiki/Uranus"
  },
  {
    "ID": "000008",
    "header_fi": "Neptunus ♆",
    "header_en": "Neptune ♆",
    "header_sv": "Neptunus ♆",
    "body_fi": "Neptunus on Auringosta katsottuna kahdeksas Aurinkokunnan planeetta. Se kuuluu Aurinkokunnan suuriin ulkoplaneettoihin ja jättiläisplaneettoihin.\r\n\r\nNeptunus on Aurinkokunnan uloin planeetta ja jättiläisplaneetoista tihein. Neptunus tunnetaan sinisestä väristään ja suuresta tummasta pilkustaan. Neptunuksella on myös renkaat.\r\n\r\nNeptunuksella on vety-, metaani- ja heliumosista koostuva kaasukehä. Niiden alla arvellaan olevan kuumasta ja tiheästä vesi-ammoniakkinesteestä koostuva vaippa. Planeetan ytimen arvellaan olevan rautaa, nikkeliä ja silikaattia.\r\n\r\nUranuksen ilmasto on hyvin aktiivinen. Sen myrskyissä on havaittu jopa 2000 km/h puhaltavia tuulennopeuksia. Suurin osa tuulista puhaltaa vastakkaiseen suuntaan planeetan pyörimissuunnan suhteen.\r\n\r\nNeptunuksella on 14 kuuta, joista suurin on Triton. Triton on Aurinkokunnan kylmin tunnettu kohde. Sen pinnalla on havaittu harvinaista jäävulkanismia, jäätulivuoria tai -geysireitä, joista purkautuu jäistä typpeä. Neptunuksen muut kuut ovat huomattavasti Tritonia pienempiä.\r\n\r\nLisätietoa: https://fi.wikipedia.org/wiki/Neptunus",
    "body_en": "For further information, visit: https://en.wikipedia.org/wiki/Neptune",
    "body_sv": "För mer information gå in på: https://sv.wikipedia.org/wiki/Neptunus"
  }
]