[
	{	"ID":"000001",
		"header_fi":"Perusviiva",
		"header_en":"Standard baseline",
		"header_sv":"",
		"body_fi":"Perusviiva on maastoon mitattu linja, jonka avulla voidaan määrittellä vaikkapa kartan mittakaava tai säätää elektronisia mittauslaitteita. Menetelmän kehitti Yrjö Väisälä vuonna 1947.\r\n\r\nYrjö Väisälä perusti myös Tuorlan observatorion 1952. Hän oli erityisen kiinnostunut optiikasta ja kehitti teleskooppien optiikan valmistukseen useita teknisiä parannuksia sekä hioi apulaisineen kymmeniä peilejä ja linssejä teleskooppeihin.\r\n\r\nLisätietoa: https://fi.wikipedia.org/wiki/Normaaliperusviiva",
		"body_en":"For further information, visit: https://en.wikipedia.org/wiki/Standard_baseline",
		"body_sv":""
		},
	{	"ID":"000002",
		"header_fi":"Punainen testitorni",
		"header_en":"Red testing tower",
		"header_sv":"",
		"body_fi":"",
		"body_en":"",
		"body_sv":""
		},
	{	"ID":"000003",
		"header_fi":"1m D-K -teleskoopin torni",
		"header_en":"1m D-K telescope tower",
		"header_sv":"1m D-K teleskop torn",
		"body_fi":"Pihan korkeimmassa tornissa on Dall-Kirkham -peilikaukoputki. Peilin halkaisija on 1 metri. Apupeili suuntaa peilin heijastaman valon kapeana säteenä takaisin kohti peiliä, jonka keskellä olevasta aukosta valo päätyy CCD-kameraan.\r\n\r\nLisätietoa (englanniksi): http://www.astro.utu.fi/research/telescopes/metri.htm",
		"body_en":"For further information, visit: http://www.astro.utu.fi/research/telescopes/metri.htm",
		"body_sv":"För mer information gå in på (Sidan är på engelska): http://www.astro.utu.fi/research/telescopes/metri.htm"
		},
	{	"ID":"000004",
		"header_fi":"Zeniittiputki 1:n torni",
		"header_en":"Zenith tower 1",
		"header_sv":"Zenit torn 1",
		"body_fi":"Sana zeniitti tarkoittaa taivaan ylintä pistettä eli kohtaa, joka on suoraan katsojan pään yläpuolella. Zeniittikaukoputki onkin kiinteästi asennettu pystysuoraan asentoon kohti taivasta.\r\n\r\nKiinteässä asennossa olevan zeniittikaukoputken tarkoitus on tutkia maapallon pyörimistä ja siinä erityisesti maantieteellisen leveysasteen pieniä muutoksia.\r\n\r\nTämän tornin kaukoputki on linssikaukoputki, jonka linssin halkaisija on 0.39 metriä.\r\n\r\nLisätietoa (englanniksi): http://www.astro.utu.fi/research/telescopes/zenit.htm",
		"body_en":"For further information, visit: http://www.astro.utu.fi/research/telescopes/zenit.htm",
		"body_sv":"För mer information gå in på (Sidan är på engelska): http://www.astro.utu.fi/research/telescopes/zenit.htm"
		},
	{	"ID":"000005",
		"header_fi":"0.7m Schmidt-teleskoopin torni",
		"header_en":"0.7m Schmidt telescope tower",
		"header_sv":"0.7m Schmidt teleskop torn",
		"body_fi":"Schmidt -peilikaukoputken peilin halkaisija on 0.7 metriä. Putken perällä oleva peili heijastaa kokoamansa valon suoraan CCD-kameraan, joka on ripustettu putken keskivaiheille, peilin eteen.\r\n\r\nLisätietoa (englanniksi): http://www.astro.utu.fi/research/telescopes/vaisala.htm",
		"body_en":"For further information, visit: http://www.astro.utu.fi/research/telescopes/vaisala.htm",
		"body_sv":"För mer information gå in på (Sidan är på engelska): http://www.astro.utu.fi/research/telescopes/vaisala.htm"
		},
	{	"ID":"000006",
		"header_fi":"Zeniittiputki 2:n torni",
		"header_en":"Zenith tower 2",
		"header_sv":"Zenit torn 2",
		"body_fi":"Tuorlassa on kaksi zeniittitornia. Zeniittitorni 2:n tarkoitus ja toiminta ovat samanlaiset kuin Zeniittitorni 1:n.\r\n\r\nSana zeniitti tarkoittaa kohtaa, joka on suoraan katsojan pään yläpuolella. Zeniittikaukoputki onkin kiinteästi asennettu pystysuoraan asentoon kohti taivasta.\r\n\r\nZeniittikaukoputken tarkoitus on tutkia maapallon pyörimistä ja siinä erityisesti maantieteellisen leveysasteen pieniä muutoksia.\r\n\r\nTämän tornin kaukoputki on linssikaukoputki, jonka linssin halkaisija on 0.25 metriä.",
		"body_en":"",
		"body_sv":""
		},
	{	"ID":"000007",
		"header_fi":"0.4m Väisälä-Schmidt -teleskoopin torni",
		"header_en":"0.4m Väisälä-Schmidt telescope tower",
		"header_sv":"0.4m Väisälä-Schmidt teleskop torn",
		"body_fi":"Tuorla 0.4m Väisälä-Schmidt on kamerateleskooppi. Se on peilikaukoputki, jonka peilin halkaisija on 40cm eli 0.4m.\r\n\r\nPutki on umpinainen. Joissain kaukoputkissa se voi olla osittain avorakenteinen.\r\n\r\nPutken kiinnitys jalustaan on niin kutsuttu ekvatoriaalinen pystytys. Se tarkoittaa sitä, että jalusta on asennettu kallistuskulmaan, joka on sama kuin sijaintipaikan maantieteellisen leveyspiirin asteluku. Suomessa se on 60 astetta. Tämän asennon johdosta kaukoputkella voidaan helpommin seurata havaittavan kohteen liikettä taivaankannella.\r\n\r\nTämän kaukoputken peili ohjaa valon putken sisällä, sen keskivaiheille ripustettuun kameraan. Alunperin kamerana toimi valokuvauslevy, mutta se on sittemmin korvattu USB-kameralla.\r\n\r\nLisätietoa (englanniksi): http://www.astro.utu.fi/research/telescopes/40cm.htm",
		"body_en":"For further information, visit: http://www.astro.utu.fi/research/telescopes/40cm.htm",
		"body_sv":"För mer information gå in på (Sidan är på engelska): http://www.astro.utu.fi/research/telescopes/40cm.htm"
		},
	{	"ID":"000008",
		"header_fi":"0.6 R-C -teleskoopin torni",
		"header_en":"0.6 R-C telescope tower",
		"header_sv":"0.6 R-C teleskop torn",
		"body_fi":"Tuorla 0.6m Ritchey-Chrétien -teleskooppi on peilikaukoputki, jonka pääpeilin halkaisija on 0.6 metriä. Sen eteen, putken etuosaan on ripustettu apupeili. Kumpikin peili osaltaan kokoaa putkeen saapuvaa valoa tiiviimmäksi. Apupeili suuntaa valon foto-polarimetriin.\r\n\r\nPutki on avorakenteinen.\r\n\r\nPutken kiinnitys jalustaan on niin kutsuttu ekvatoriaalinen ripustus. Se tarkoittaa sitä, että jalusta on asennettu kallistuskulmaan, joka on sama kuin sijaintipaikan maantieteellisen leveyspiirin asteluku. Suomessa se on 60 astetta. Tämän asennon johdosta kaukoputkella voidaan helpommin seurata havaittavan kohteen liikettä taivaankannella.\r\n\r\nTämän kaukoputken ohjaus on motorisoitu ja sitä hallitaan PC-tietokoneella.\r\n\r\nLisätietoa (englanniksi): http://www.astro.utu.fi/research/telescopes/60cm.htm",
		"body_en":"For further information, visit: http://www.astro.utu.fi/research/telescopes/60cm.htm",
		"body_sv":"För mer information gå in på (Sidan är på engelska): http://www.astro.utu.fi/research/telescopes/60cm.htm"
		},
	{	"ID":"000009",
		"header_fi":"2m radioteleskooppi",
		"header_en":"2m radiotelescope",
		"header_sv":"2m radioteleskop",
		"body_fi":"Radioteleskoopilla havainnoidaan valon sijasta radiosäteilyä.\r\n\r\nSekä valo, että radiosäteily ovat osa sähkömagneettisen säteilyn spektriä. Siihen kuuluvat myös mikroaallot, infrapunasäteily, ultraviolettisäteily, röntgensäteily ja gammasäteily. Sähkömagneettisen spektrin osista siis vain valo on silmin havaittavissa.\r\n\r\nSähkömagneettisen spektrin osat luokitellaan säteilyn aallonpituuden mukaan. Tässä järjestelyssä radioteleskooppimme havainnoiman radiosäteilyn aallonpituus on suurin.\r\n\r\nLisätietoa (englanniksi): http://www.astro.utu.fi/research/telescopes/radio.html",
		"body_en":"For further information, visit: http://www.astro.utu.fi/research/telescopes/radio.html",
		"body_sv":"För mer information gå in på (Sidan är på engelska): http://www.astro.utu.fi/research/telescopes/radio.html"
		},
	{	"ID":"000010",
		"header_fi":"GPS-asema",
		"header_en":"GPS station",
		"header_sv":"",
		"body_fi":"Tuorlan GPS-asema on yksi Suomen pysyvien GPS-asemien verkoston asemista. Sitä hallinnoi Suomen Maanmittauslaitoksen Paikkatietokeskus.\r\n\r\nLisätietoa (englanniksi): http://www.astro.utu.fi/research/telescopes/tuorlagps.html",
		"body_en":"For further information, visit: http://www.astro.utu.fi/research/telescopes/tuorlagps.html",
		"body_sv":"För mer information gå in på (Sidan är på engelska): http://www.astro.utu.fi/research/telescopes/tuorlagps.html"
		},
	{	"ID":"000011",
		"header_fi":"Swiss -Aurinko-polarimetri",
		"header_en":"Swiss Solar polarimeter",
		"header_sv":"Swiss Solar polarimeter",
		"body_fi":"Swiss -Aurinko-polarimetri havainnoi radiosäteilyä ja on erityisesti tarkoitettu Auringon havainnoimiseen. Kokonaisuus koostuu kaikkiaan viidestä radiomittauslaitteesta. Järjestelmä on täysin automatisoitu.\r\n\r\nLisätietoa (englanniksi): http://www.astro.utu.fi/tuorla/solar/tuorlainst.html",
		"body_en":"For further information, visit: http://www.astro.utu.fi/tuorla/solar/tuorlainst.html",
		"body_sv":"För mer information gå in på (Sidan är på engelska): http://www.astro.utu.fi/tuorla/solar/tuorlainst.html"
		},
	{	"ID":"000012",
		"header_fi":"Planetaario",
		"header_en":"Planetary",
		"header_sv":"Planetarium",
		"body_fi":"Planetaario on vaaleansinisessä hiomorakennuksessa, jonka katolla kohoaa korkea torni.\r\n\r\nPlanetaario avattiin vuonna 2008 ja siellä on siitä alkaen esitetty elokuvia tähtitieteellisistä ilmiöistä ja kerrottu tähtitaivaan tapahtumista.Planetaario on osa Tuorlan observatoriota, jonka muita rakennuksia näet tässä ympärillä.Observatorio kuuluu Turun yliopiston tähtitieteen yksikköön.\r\n\r\nLisätietoa: http://www.astro.utu.fi/planetaario/index.shtml",
		"body_en":"For further information (in finnish), visit: http://www.astro.utu.fi/planetaario/index.shtml",
		"body_sv":"För mer information gå in på (Sidan är på finska): http://www.astro.utu.fi/planetaario/index.shtml"
		},
	{	"ID":"000013",
		"header_fi":"Luola",
		"header_en":"Cave",
		"header_sv":"Tunneln",
		"body_fi":"Observatorion kallioon louhittiin aikoinaan luola mittauslaitteita varten. Nykyään käytävällä sijaitsee valokuva- ja kalustonäyttely.\r\n\r\nLuolan 70 metriä pitkä vaakasuora käytävä kulkee koko kallion poikki. Huomasitko Tuorlaan saapuessasi suuret ovet kalliossa? Luola päätyy sinne.\r\n\r\nLuolan sisäänkäynnissä ja käytävän varrella on myös tiloja, joissa hiotaan optisia linssejä.",
		"body_en":"",
		"body_sv":""
		},
	{	"ID":"000014",
		"header_fi":"Hiomohalli",
		"header_en":"Polishing hall",
		"header_sv":"",
		"body_fi":"Opteon Oy:n hiomohallissa valmistettiin halkaisijaltaan 3,5:n metrin kokoinen peili Herschel-satelliittiin. Täsmällisen hiontatuloksen saavuttamiseksi hiontatason ylle rakennettiin korkea mittaustorni. ",
		"body_en":"",
		"body_sv":""
		},
	{	"ID":"000015",
		"header_fi":"Observatorion päärakennus",
		"header_en":"Observatory main building",
		"header_sv":"Observatorium huvudbyggnad",
		"body_fi":"Observatorion päärakennuksessa sijaitsevat tutkijoiden työtilat.",
		"body_en":"",
		"body_sv":""
		},
	{	"ID":"000016",
		"header_fi":"Aikavaellus",
		"header_en":"Time trek",
		"header_sv":"Tidresan",
		"body_fi":"Aikavaellus on 13,7 kilometriä pitkä vaellus- ja ulkoilureitti, joka alkaa Tuorlan observatoriolta ja päättyy Turun yliopistolle. Vaellusreitti toimii aikajanana joka kuvaa koko maailmankaikkeuden, maan ja eliökunnan historiaa. Reitillä metri vastaa miljoonaa vuotta ja kilometri miljardia vuotta. Historian tärkeimmät tapahtumat on merkitty reitin varrelle messinkilaatoilla.\r\n\r\nLisätietoa: http://aikavaellus.fi/",
		"body_en":"TimeTrek is a 13.7 km long hiking and biking route. The route starts from the Tuorla observatory in Kaarina and runs to the University of Turku main campus. It portrays the whole history of the Universe, the Earth and the biosphere. Every kilometer of the route corresponds to a billion years, and every meter to one million years in history. The most important events and turning points in history have been marked along the trail with brass plates.\r\n\r\nFor further information, visit: http://timetrek.aikavaellus.fi/",
		"body_sv":""
		},
	{	"ID":"000017",
		"header_fi":"?",
		"header_en":"?",
		"header_sv":"?",
		"body_fi":"???",
		"body_en":"???",
		"body_sv":"???"
		},
	{	"ID":"000018",
		"header_fi":"Nuotiopaikka",
		"header_en":"Bonfire",
		"header_sv":"Lägereld",
		"body_fi":"Ihminen on tuijottanut nuotiotulta jo noin 300-400:n tuhannen vuoden ajan. Tähtitaivasta ihminen on tuijottanut ja tutkinut kuitenkin jo alkukantaisista ajoista lähtien. Sanotaankin, että tähtitiede on lääketieteen ohella tieteistä vanhin.",
		"body_en":"???",
		"body_sv":"???"
		}
]