{
    "comma": [",", ",", ","],

    "kilometer": ["km", "km", "km"],

    "day": ["vrk", "d", "d"],

    "earthMass": ["× Maa", "× Earth", "× Jorden"],

    "AU": ["AU", "AU", "AE"],

    "hour": ["t", "h", "t"],

    "kg": ["kg", "kg", "kg"],

    "year": ["v", "y", "år"]
}