{
    "STATE_ENTRY_FI": "3/32 Peilikaukoputken tärkein osa on peili. Asennetaan se seuraavaksi putken pohjaan.",
    "STATE_ENTRY_EN": "3/32 The most important part of this telescope is the mirror. Install it on the bottom of the telescope.",
    "STATE_ENTRY_SV": "Hej",
    "STATE_EXIT_FI": "4/32 Hienoa!",
    "STATE_EXIT_EN": "4/32 Wonderful!",
    "STATE_EXIT_SV": "bop bop",
    "STATE_PROGRESS_FI":
    [
    ],
    "STATE_PROGRESS_EN":
    [
    ],
    "STATE_PROGRESS_SV":
    [
    ]
}