{
    "STATE_ENTRY_FI": "19/32 Näköhavaintomme perustuvat valoon. Taivaalla oleva näkymäkin on valoa, jonka silmä havaitsee ja josta aivot muodostavat kuvan. Tarkastellaan seuraavaksi valon etenemistä kaukoputkessamme. Paina JATKA-painiketta.",
    "STATE_ENTRY_EN": "19/32 Our observations are based on light. The view in the sky is light too, that your eyes detect and your brain forms into an image. Let us study how light passes through the telescope.",
    "STATE_ENTRY_SV": "Hej",
    "STATE_EXIT_FI": "22/32 Eteenpäin!",
    "STATE_EXIT_EN": "22/32 Onwards!",
    "STATE_EXIT_SV": "bop bop",
    "STATE_PROGRESS_FI":
    [
        "20/32 Kaukoputkeen saapuva valo kulkee putken pohjalle, jossa se osuu putken tärkeimpään osaan, peiliin. Paina JATKA-painiketta.",
        "21/32 Pääpeilin kovera muoto heijastaa valon niin, että valokeila kapenee kohti polttopistettä. Koko peilin alalle osuva valo siis kootaan yhteen. Paina JATKA-painiketta."
    ],
    "STATE_PROGRESS_EN":
    [
        "20/32 The light entering the telescope travels to the bottom of the telescope. There, it bounces off the most important part, the main mirror. Tap the continue button.",
        "21/32 The main mirror reflects the light back to the secondary mirror, and the concave mirror focuses it to a smaller point. Tap the continue button."
    ],
    "STATE_PROGRESS_SV":
    [
        "asd",
        "asd"
    ]
}