%YAML 1.1
%TAG !u! tag:unity3d.com,2011:
--- !u!74 &7400000
AnimationClip:
  m_ObjectHideFlags: 0
  m_PrefabParentObject: {fileID: 0}
  m_PrefabInternal: {fileID: 0}
  m_Name: transitio
  serializedVersion: 6
  m_Legacy: 0
  m_Compressed: 0
  m_UseHighQualityCurve: 1
  m_RotationCurves: []
  m_CompressedRotationCurves: []
  m_EulerCurves: []
  m_PositionCurves: []
  m_ScaleCurves: []
  m_FloatCurves: []
  m_PPtrCurves:
  - curve:
    - time: 0
      value: {fileID: 21300000, guid: 5d833465cda979d43bf17931d1d2cd75, type: 3}
    - time: 0.083333336
      value: {fileID: 21300000, guid: cbe81536396da6a4ca1bb96d9ccaa5d3, type: 3}
    - time: 0.16666667
      value: {fileID: 21300000, guid: f4ea76837c68e5a44b3538617d139c2c, type: 3}
    - time: 0.25
      value: {fileID: 21300000, guid: 47742c02103066b43ac78a682baae4bd, type: 3}
    - time: 0.33333334
      value: {fileID: 21300000, guid: 50fe09ff7bde5ab4fb6f01456e12131e, type: 3}
    - time: 0.4166667
      value: {fileID: 21300000, guid: 2c368cf37c25a5444b08c59b8f876e05, type: 3}
    - time: 0.5
      value: {fileID: 21300000, guid: ba2209cac95a287409c8e104f68a0d07, type: 3}
    - time: 0.5833333
      value: {fileID: 21300000, guid: 5537b35f2f3ceb34eacd3befbd2e3472, type: 3}
    attribute: m_Sprite
    path: 
    classID: 114
    script: {fileID: -765806418, guid: f70555f144d8491a825f0804e09c671c, type: 3}
  m_SampleRate: 12
  m_WrapMode: 0
  m_Bounds:
    m_Center: {x: 0, y: 0, z: 0}
    m_Extent: {x: 0, y: 0, z: 0}
  m_ClipBindingConstant:
    genericBindings:
    - serializedVersion: 2
      path: 0
      attribute: 2015549526
      script: {fileID: -765806418, guid: f70555f144d8491a825f0804e09c671c, type: 3}
      typeID: 114
      customType: 0
      isPPtrCurve: 1
    pptrCurveMapping:
    - {fileID: 21300000, guid: 5d833465cda979d43bf17931d1d2cd75, type: 3}
    - {fileID: 21300000, guid: cbe81536396da6a4ca1bb96d9ccaa5d3, type: 3}
    - {fileID: 21300000, guid: f4ea76837c68e5a44b3538617d139c2c, type: 3}
    - {fileID: 21300000, guid: 47742c02103066b43ac78a682baae4bd, type: 3}
    - {fileID: 21300000, guid: 50fe09ff7bde5ab4fb6f01456e12131e, type: 3}
    - {fileID: 21300000, guid: 2c368cf37c25a5444b08c59b8f876e05, type: 3}
    - {fileID: 21300000, guid: ba2209cac95a287409c8e104f68a0d07, type: 3}
    - {fileID: 21300000, guid: 5537b35f2f3ceb34eacd3befbd2e3472, type: 3}
  m_AnimationClipSettings:
    serializedVersion: 2
    m_AdditiveReferencePoseClip: {fileID: 0}
    m_AdditiveReferencePoseTime: 0
    m_StartTime: 0
    m_StopTime: 0.6666666
    m_OrientationOffsetY: 0
    m_Level: 0
    m_CycleOffset: 0
    m_HasAdditiveReferencePose: 0
    m_LoopTime: 1
    m_LoopBlend: 0
    m_LoopBlendOrientation: 0
    m_LoopBlendPositionY: 0
    m_LoopBlendPositionXZ: 0
    m_KeepOriginalOrientation: 0
    m_KeepOriginalPositionY: 1
    m_KeepOriginalPositionXZ: 0
    m_HeightFromFeet: 0
    m_Mirror: 0
  m_EditorCurves: []
  m_EulerEditorCurves: []
  m_HasGenericRootTransform: 0
  m_HasMotionFloatCurves: 0
  m_GenerateMotionCurves: 0
  m_Events: []
